%!PS-Adobe-2.0 EPSF-2.0
%%Title: ekinrad_epot.eps
%%Creator: gnuplot 3.8j patchlevel 0
%%CreationDate: Sun Nov 13 02:47:56 2005
%%DocumentFonts: (atend)
%%BoundingBox: 50 50 410 302
%%Orientation: Portrait
%%EndComments
/gnudict 256 dict def
gnudict begin
/Color true def
/Solid true def
/gnulinewidth 5.000 def
/userlinewidth gnulinewidth def
/vshift -46 def
/dl {10.0 mul} def
/hpt_ 31.5 def
/vpt_ 31.5 def
/hpt hpt_ def
/vpt vpt_ def
/Rounded false def
/M {moveto} bind def
/L {lineto} bind def
/R {rmoveto} bind def
/V {rlineto} bind def
/N {newpath moveto} bind def
/C {setrgbcolor} bind def
/f {rlineto fill} bind def
/vpt2 vpt 2 mul def
/hpt2 hpt 2 mul def
/Lshow { currentpoint stroke M
  0 vshift R show } def
/Rshow { currentpoint stroke M
  dup stringwidth pop neg vshift R show } def
/Cshow { currentpoint stroke M
  dup stringwidth pop -2 div vshift R show } def
/UP { dup vpt_ mul /vpt exch def hpt_ mul /hpt exch def
  /hpt2 hpt 2 mul def /vpt2 vpt 2 mul def } def
/DL { Color {setrgbcolor Solid {pop []} if 0 setdash }
 {pop pop pop 0 setgray Solid {pop []} if 0 setdash} ifelse } def
/BL { stroke userlinewidth 2 mul setlinewidth
      Rounded { 1 setlinejoin 1 setlinecap } if } def
/AL { stroke userlinewidth 2 div setlinewidth
      Rounded { 1 setlinejoin 1 setlinecap } if } def
/UL { dup gnulinewidth mul /userlinewidth exch def
      dup 1 lt {pop 1} if 10 mul /udl exch def } def
/PL { stroke userlinewidth setlinewidth
      Rounded { 1 setlinejoin 1 setlinecap } if } def
/LTb { BL [] 0 0 0 DL } def
/LTa { AL [1 udl mul 2 udl mul] 0 setdash 0 0 0 setrgbcolor } def
/LT0 { PL [] 1 0 0 DL } def
/LT1 { PL [4 dl 2 dl] 0 1 0 DL } def
/LT2 { PL [2 dl 3 dl] 0 0 1 DL } def
/LT3 { PL [1 dl 1.5 dl] 1 0 1 DL } def
/LT4 { PL [5 dl 2 dl 1 dl 2 dl] 0 1 1 DL } def
/LT5 { PL [4 dl 3 dl 1 dl 3 dl] 1 1 0 DL } def
/LT6 { PL [2 dl 2 dl 2 dl 4 dl] 0 0 0 DL } def
/LT7 { PL [2 dl 2 dl 2 dl 2 dl 2 dl 4 dl] 1 0.3 0 DL } def
/LT8 { PL [2 dl 2 dl 2 dl 2 dl 2 dl 2 dl 2 dl 4 dl] 0.5 0.5 0.5 DL } def
/Pnt { stroke [] 0 setdash
   gsave 1 setlinecap M 0 0 V stroke grestore } def
/Dia { stroke [] 0 setdash 2 copy vpt add M
  hpt neg vpt neg V hpt vpt neg V
  hpt vpt V hpt neg vpt V closepath stroke
  Pnt } def
/Pls { stroke [] 0 setdash vpt sub M 0 vpt2 V
  currentpoint stroke M
  hpt neg vpt neg R hpt2 0 V stroke
  } def
/Box { stroke [] 0 setdash 2 copy exch hpt sub exch vpt add M
  0 vpt2 neg V hpt2 0 V 0 vpt2 V
  hpt2 neg 0 V closepath stroke
  Pnt } def
/Crs { stroke [] 0 setdash exch hpt sub exch vpt add M
  hpt2 vpt2 neg V currentpoint stroke M
  hpt2 neg 0 R hpt2 vpt2 V stroke } def
/TriU { stroke [] 0 setdash 2 copy vpt 1.12 mul add M
  hpt neg vpt -1.62 mul V
  hpt 2 mul 0 V
  hpt neg vpt 1.62 mul V closepath stroke
  Pnt  } def
/Star { 2 copy Pls Crs } def
/BoxF { stroke [] 0 setdash exch hpt sub exch vpt add M
  0 vpt2 neg V  hpt2 0 V  0 vpt2 V
  hpt2 neg 0 V  closepath fill } def
/TriUF { stroke [] 0 setdash vpt 1.12 mul add M
  hpt neg vpt -1.62 mul V
  hpt 2 mul 0 V
  hpt neg vpt 1.62 mul V closepath fill } def
/TriD { stroke [] 0 setdash 2 copy vpt 1.12 mul sub M
  hpt neg vpt 1.62 mul V
  hpt 2 mul 0 V
  hpt neg vpt -1.62 mul V closepath stroke
  Pnt  } def
/TriDF { stroke [] 0 setdash vpt 1.12 mul sub M
  hpt neg vpt 1.62 mul V
  hpt 2 mul 0 V
  hpt neg vpt -1.62 mul V closepath fill} def
/DiaF { stroke [] 0 setdash vpt add M
  hpt neg vpt neg V hpt vpt neg V
  hpt vpt V hpt neg vpt V closepath fill } def
/Pent { stroke [] 0 setdash 2 copy gsave
  translate 0 hpt M 4 {72 rotate 0 hpt L} repeat
  closepath stroke grestore Pnt } def
/PentF { stroke [] 0 setdash gsave
  translate 0 hpt M 4 {72 rotate 0 hpt L} repeat
  closepath fill grestore } def
/Circle { stroke [] 0 setdash 2 copy
  hpt 0 360 arc stroke Pnt } def
/CircleF { stroke [] 0 setdash hpt 0 360 arc fill } def
/C0 { BL [] 0 setdash 2 copy moveto vpt 90 450  arc } bind def
/C1 { BL [] 0 setdash 2 copy        moveto
       2 copy  vpt 0 90 arc closepath fill
               vpt 0 360 arc closepath } bind def
/C2 { BL [] 0 setdash 2 copy moveto
       2 copy  vpt 90 180 arc closepath fill
               vpt 0 360 arc closepath } bind def
/C3 { BL [] 0 setdash 2 copy moveto
       2 copy  vpt 0 180 arc closepath fill
               vpt 0 360 arc closepath } bind def
/C4 { BL [] 0 setdash 2 copy moveto
       2 copy  vpt 180 270 arc closepath fill
               vpt 0 360 arc closepath } bind def
/C5 { BL [] 0 setdash 2 copy moveto
       2 copy  vpt 0 90 arc
       2 copy moveto
       2 copy  vpt 180 270 arc closepath fill
               vpt 0 360 arc } bind def
/C6 { BL [] 0 setdash 2 copy moveto
      2 copy  vpt 90 270 arc closepath fill
              vpt 0 360 arc closepath } bind def
/C7 { BL [] 0 setdash 2 copy moveto
      2 copy  vpt 0 270 arc closepath fill
              vpt 0 360 arc closepath } bind def
/C8 { BL [] 0 setdash 2 copy moveto
      2 copy vpt 270 360 arc closepath fill
              vpt 0 360 arc closepath } bind def
/C9 { BL [] 0 setdash 2 copy moveto
      2 copy  vpt 270 450 arc closepath fill
              vpt 0 360 arc closepath } bind def
/C10 { BL [] 0 setdash 2 copy 2 copy moveto vpt 270 360 arc closepath fill
       2 copy moveto
       2 copy vpt 90 180 arc closepath fill
               vpt 0 360 arc closepath } bind def
/C11 { BL [] 0 setdash 2 copy moveto
       2 copy  vpt 0 180 arc closepath fill
       2 copy moveto
       2 copy  vpt 270 360 arc closepath fill
               vpt 0 360 arc closepath } bind def
/C12 { BL [] 0 setdash 2 copy moveto
       2 copy  vpt 180 360 arc closepath fill
               vpt 0 360 arc closepath } bind def
/C13 { BL [] 0 setdash  2 copy moveto
       2 copy  vpt 0 90 arc closepath fill
       2 copy moveto
       2 copy  vpt 180 360 arc closepath fill
               vpt 0 360 arc closepath } bind def
/C14 { BL [] 0 setdash 2 copy moveto
       2 copy  vpt 90 360 arc closepath fill
               vpt 0 360 arc } bind def
/C15 { BL [] 0 setdash 2 copy vpt 0 360 arc closepath fill
               vpt 0 360 arc closepath } bind def
/Rec   { newpath 4 2 roll moveto 1 index 0 rlineto 0 exch rlineto
       neg 0 rlineto closepath } bind def
/Square { dup Rec } bind def
/Bsquare { vpt sub exch vpt sub exch vpt2 Square } bind def
/S0 { BL [] 0 setdash 2 copy moveto 0 vpt rlineto BL Bsquare } bind def
/S1 { BL [] 0 setdash 2 copy vpt Square fill Bsquare } bind def
/S2 { BL [] 0 setdash 2 copy exch vpt sub exch vpt Square fill Bsquare } bind def
/S3 { BL [] 0 setdash 2 copy exch vpt sub exch vpt2 vpt Rec fill Bsquare } bind def
/S4 { BL [] 0 setdash 2 copy exch vpt sub exch vpt sub vpt Square fill Bsquare } bind def
/S5 { BL [] 0 setdash 2 copy 2 copy vpt Square fill
       exch vpt sub exch vpt sub vpt Square fill Bsquare } bind def
/S6 { BL [] 0 setdash 2 copy exch vpt sub exch vpt sub vpt vpt2 Rec fill Bsquare } bind def
/S7 { BL [] 0 setdash 2 copy exch vpt sub exch vpt sub vpt vpt2 Rec fill
       2 copy vpt Square fill
       Bsquare } bind def
/S8 { BL [] 0 setdash 2 copy vpt sub vpt Square fill Bsquare } bind def
/S9 { BL [] 0 setdash 2 copy vpt sub vpt vpt2 Rec fill Bsquare } bind def
/S10 { BL [] 0 setdash 2 copy vpt sub vpt Square fill 2 copy exch vpt sub exch vpt Square fill
       Bsquare } bind def
/S11 { BL [] 0 setdash 2 copy vpt sub vpt Square fill 2 copy exch vpt sub exch vpt2 vpt Rec fill
       Bsquare } bind def
/S12 { BL [] 0 setdash 2 copy exch vpt sub exch vpt sub vpt2 vpt Rec fill Bsquare } bind def
/S13 { BL [] 0 setdash 2 copy exch vpt sub exch vpt sub vpt2 vpt Rec fill
       2 copy vpt Square fill Bsquare } bind def
/S14 { BL [] 0 setdash 2 copy exch vpt sub exch vpt sub vpt2 vpt Rec fill
       2 copy exch vpt sub exch vpt Square fill Bsquare } bind def
/S15 { BL [] 0 setdash 2 copy Bsquare fill Bsquare } bind def
/D0 { gsave translate 45 rotate 0 0 S0 stroke grestore } bind def
/D1 { gsave translate 45 rotate 0 0 S1 stroke grestore } bind def
/D2 { gsave translate 45 rotate 0 0 S2 stroke grestore } bind def
/D3 { gsave translate 45 rotate 0 0 S3 stroke grestore } bind def
/D4 { gsave translate 45 rotate 0 0 S4 stroke grestore } bind def
/D5 { gsave translate 45 rotate 0 0 S5 stroke grestore } bind def
/D6 { gsave translate 45 rotate 0 0 S6 stroke grestore } bind def
/D7 { gsave translate 45 rotate 0 0 S7 stroke grestore } bind def
/D8 { gsave translate 45 rotate 0 0 S8 stroke grestore } bind def
/D9 { gsave translate 45 rotate 0 0 S9 stroke grestore } bind def
/D10 { gsave translate 45 rotate 0 0 S10 stroke grestore } bind def
/D11 { gsave translate 45 rotate 0 0 S11 stroke grestore } bind def
/D12 { gsave translate 45 rotate 0 0 S12 stroke grestore } bind def
/D13 { gsave translate 45 rotate 0 0 S13 stroke grestore } bind def
/D14 { gsave translate 45 rotate 0 0 S14 stroke grestore } bind def
/D15 { gsave translate 45 rotate 0 0 S15 stroke grestore } bind def
/DiaE { stroke [] 0 setdash vpt add M
  hpt neg vpt neg V hpt vpt neg V
  hpt vpt V hpt neg vpt V closepath stroke } def
/BoxE { stroke [] 0 setdash exch hpt sub exch vpt add M
  0 vpt2 neg V hpt2 0 V 0 vpt2 V
  hpt2 neg 0 V closepath stroke } def
/TriUE { stroke [] 0 setdash vpt 1.12 mul add M
  hpt neg vpt -1.62 mul V
  hpt 2 mul 0 V
  hpt neg vpt 1.62 mul V closepath stroke } def
/TriDE { stroke [] 0 setdash vpt 1.12 mul sub M
  hpt neg vpt 1.62 mul V
  hpt 2 mul 0 V
  hpt neg vpt -1.62 mul V closepath stroke } def
/PentE { stroke [] 0 setdash gsave
  translate 0 hpt M 4 {72 rotate 0 hpt L} repeat
  closepath stroke grestore } def
/CircE { stroke [] 0 setdash 
  hpt 0 360 arc stroke } def
/Opaque { gsave closepath 1 setgray fill grestore 0 setgray closepath } def
/DiaW { stroke [] 0 setdash vpt add M
  hpt neg vpt neg V hpt vpt neg V
  hpt vpt V hpt neg vpt V Opaque stroke } def
/BoxW { stroke [] 0 setdash exch hpt sub exch vpt add M
  0 vpt2 neg V hpt2 0 V 0 vpt2 V
  hpt2 neg 0 V Opaque stroke } def
/TriUW { stroke [] 0 setdash vpt 1.12 mul add M
  hpt neg vpt -1.62 mul V
  hpt 2 mul 0 V
  hpt neg vpt 1.62 mul V Opaque stroke } def
/TriDW { stroke [] 0 setdash vpt 1.12 mul sub M
  hpt neg vpt 1.62 mul V
  hpt 2 mul 0 V
  hpt neg vpt -1.62 mul V Opaque stroke } def
/PentW { stroke [] 0 setdash gsave
  translate 0 hpt M 4 {72 rotate 0 hpt L} repeat
  Opaque stroke grestore } def
/CircW { stroke [] 0 setdash 
  hpt 0 360 arc Opaque stroke } def
/BoxFill { gsave Rec 1 setgray fill grestore } def
/BoxColFill {
  gsave Rec
  /Fillden exch def
  currentrgbcolor
  /ColB exch def /ColG exch def /ColR exch def
  /ColR ColR Fillden mul Fillden sub 1 add def
  /ColG ColG Fillden mul Fillden sub 1 add def
  /ColB ColB Fillden mul Fillden sub 1 add def
  ColR ColG ColB setrgbcolor
  fill grestore } def
%
% PostScript Level 1 Pattern Fill routine
% Usage: x y w h s a XX PatternFill
%	x,y = lower left corner of box to be filled
%	w,h = width and height of box
%	  a = angle in degrees between lines and x-axis
%	 XX = 0/1 for no/yes cross-hatch
%
/PatternFill { gsave /PFa [ 9 2 roll ] def
    PFa 0 get PFa 2 get 2 div add PFa 1 get PFa 3 get 2 div add translate
    PFa 2 get -2 div PFa 3 get -2 div PFa 2 get PFa 3 get Rec
    gsave 1 setgray fill grestore clip
    currentlinewidth 0.5 mul setlinewidth
    /PFs PFa 2 get dup mul PFa 3 get dup mul add sqrt def
    0 0 M PFa 5 get rotate PFs -2 div dup translate
	0 1 PFs PFa 4 get div 1 add floor cvi
	{ PFa 4 get mul 0 M 0 PFs V } for
    0 PFa 6 get ne {
	0 1 PFs PFa 4 get div 1 add floor cvi
	{ PFa 4 get mul 0 2 1 roll M PFs 0 V } for
    } if
    stroke grestore } def
%
/Symbol-Oblique /Symbol findfont [1 0 .167 1 0 0] makefont
dup length dict begin {1 index /FID eq {pop pop} {def} ifelse} forall
currentdict end definefont pop
/MFshow {{dup dup 0 get findfont exch 1 get scalefont setfont
     [ currentpoint ] exch dup 2 get 0 exch R dup 5 get 2 ne {dup dup 6
     get exch 4 get {show} {stringwidth pop 0 R} ifelse }if dup 5 get 0 eq
     {dup 3 get {2 get neg 0 exch R pop} {pop aload pop M} ifelse} {dup 5
     get 1 eq {dup 2 get exch dup 3 get exch 6 get stringwidth pop -2 div
     dup 0 R} {dup 6 get stringwidth pop -2 div 0 R 6 get
     show 2 index {aload pop M neg 3 -1 roll neg R pop pop} {pop pop pop
     pop aload pop M} ifelse }ifelse }ifelse } forall} bind def
/MFwidth {0 exch {dup 3 get{dup dup 0 get findfont exch 1 get scalefont
     setfont 6 get stringwidth pop add} {pop} ifelse} forall} bind def
/MLshow { currentpoint stroke M
  0 exch R MFshow } bind def
/MRshow { currentpoint stroke M
  exch dup MFwidth neg 3 -1 roll R MFshow } def
/MCshow { currentpoint stroke M
  exch dup MFwidth -2 div 3 -1 roll R MFshow } def
end
%%EndProlog
gnudict begin
gsave
50 50 translate
0.050 0.050 scale
0 setgray
newpath
(Times New Roman 12) findfont 140 scalefont setfont
1.000 UL
LTb
1.000 UL
LTa
714 420 M
6248 0 V
1.000 UL
LTb
714 420 M
63 0 V
6185 0 R
-63 0 V
stroke
630 420 M
[ [(Times New Roman 12) 140.0 0.0 true true 0 (-200)]
] -46.7 MRshow
1.000 UL
LTb
1.000 UL
LTa
714 977 M
6248 0 V
1.000 UL
LTb
714 977 M
63 0 V
6185 0 R
-63 0 V
stroke
630 977 M
[ [(Times New Roman 12) 140.0 0.0 true true 0 (-150)]
] -46.7 MRshow
1.000 UL
LTb
1.000 UL
LTa
714 1533 M
6248 0 V
1.000 UL
LTb
714 1533 M
63 0 V
6185 0 R
-63 0 V
stroke
630 1533 M
[ [(Times New Roman 12) 140.0 0.0 true true 0 (-100)]
] -46.7 MRshow
1.000 UL
LTb
1.000 UL
LTa
714 2090 M
6248 0 V
1.000 UL
LTb
714 2090 M
63 0 V
6185 0 R
-63 0 V
stroke
630 2090 M
[ [(Times New Roman 12) 140.0 0.0 true true 0 (-50)]
] -46.7 MRshow
1.000 UL
LTb
1.000 UL
LTa
714 2646 M
6248 0 V
1.000 UL
LTb
714 2646 M
63 0 V
6185 0 R
-63 0 V
stroke
630 2646 M
[ [(Times New Roman 12) 140.0 0.0 true true 0 ( 0)]
] -46.7 MRshow
1.000 UL
LTb
1.000 UL
LTa
714 3203 M
6248 0 V
1.000 UL
LTb
714 3203 M
63 0 V
6185 0 R
-63 0 V
stroke
630 3203 M
[ [(Times New Roman 12) 140.0 0.0 true true 0 ( 50)]
] -46.7 MRshow
1.000 UL
LTb
1.000 UL
LTa
714 3759 M
6248 0 V
1.000 UL
LTb
714 3759 M
63 0 V
6185 0 R
-63 0 V
stroke
630 3759 M
[ [(Times New Roman 12) 140.0 0.0 true true 0 ( 100)]
] -46.7 MRshow
1.000 UL
LTb
1.000 UL
LTa
714 4316 M
4505 0 V
1659 0 R
84 0 V
1.000 UL
LTb
714 4316 M
63 0 V
6185 0 R
-63 0 V
stroke
630 4316 M
[ [(Times New Roman 12) 140.0 0.0 true true 0 ( 150)]
] -46.7 MRshow
1.000 UL
LTb
1.000 UL
LTa
714 4872 M
6248 0 V
1.000 UL
LTb
714 4872 M
63 0 V
6185 0 R
-63 0 V
stroke
630 4872 M
[ [(Times New Roman 12) 140.0 0.0 true true 0 ( 200)]
] -46.7 MRshow
1.000 UL
LTb
1.000 UL
LTa
6962 420 M
0 4452 V
1.000 UL
LTb
6962 420 M
0 63 V
0 4389 R
0 -63 V
stroke
6962 280 M
[ [(Times New Roman 12) 140.0 0.0 true true 0 (3)]
] -46.7 MCshow
1.000 UL
LTb
1.000 UL
LTa
4879 420 M
0 4452 V
1.000 UL
LTb
4879 420 M
0 63 V
0 4389 R
0 -63 V
stroke
4879 280 M
[ [(Times New Roman 12) 140.0 0.0 true true 0 (2)]
] -46.7 MCshow
1.000 UL
LTb
1.000 UL
LTa
2797 420 M
0 4452 V
1.000 UL
LTb
2797 420 M
0 63 V
0 4389 R
0 -63 V
stroke
2797 280 M
[ [(Times New Roman 12) 140.0 0.0 true true 0 (1)]
] -46.7 MCshow
1.000 UL
LTb
1.000 UL
LTa
714 420 M
0 4452 V
1.000 UL
LTb
714 420 M
0 63 V
0 4389 R
0 -63 V
stroke
714 280 M
[ [(Times New Roman 12) 140.0 0.0 true true 0 ( 0)]
] -46.7 MCshow
1.000 UL
LTb
1.000 UL
LTb
714 420 M
6248 0 V
0 4452 V
-6248 0 V
714 420 L
LTb
140 2646 M
currentpoint gsave translate 90 rotate 0 0 moveto
[ [(Italic) 140.0 0.0 true true 0 (U)]
[(Times New Roman 12) 140.0 0.0 true true 0 (\()]
[(Italic) 140.0 0.0 true true 0 (r)]
[(Times New Roman 12) 140.0 0.0 true true 0 (\)/eV)]
] -46.7 MCshow
grestore
LTb
3838 70 M
[ [(Italic) 140.0 0.0 true true 0 (r)]
[(Times New Roman 12) 140.0 0.0 true true 0 (/)]
[(Italic) 140.0 0.0 true true 0 (a)]
[(Times New Roman 12) 112.0 -42.0 true true 0 (0)]
] -32.7 MCshow
1.000 UP
4.000 UL
LT0
LTb
6311 4739 M
[ [(Italic) 140.0 0.0 true true 0 (l)]
[(Times New Roman 12) 140.0 0.0 true true 0 (=0)]
] -46.7 MRshow
LT0
6395 4739 M
399 0 V
1001 420 M
29 228 V
63 333 V
63 238 V
63 178 V
63 139 V
63 111 V
63 91 V
63 76 V
63 64 V
64 54 V
63 48 V
63 42 V
63 36 V
63 33 V
63 29 V
63 27 V
63 23 V
63 22 V
64 20 V
63 18 V
63 16 V
63 16 V
63 14 V
63 13 V
63 13 V
63 11 V
63 11 V
64 10 V
63 9 V
63 9 V
63 9 V
63 8 V
63 7 V
63 7 V
63 7 V
63 6 V
64 6 V
63 6 V
63 6 V
63 5 V
63 5 V
63 5 V
63 4 V
63 5 V
63 4 V
64 4 V
63 4 V
63 4 V
63 4 V
63 3 V
63 3 V
63 4 V
63 3 V
63 3 V
64 3 V
63 3 V
63 2 V
63 3 V
63 2 V
63 3 V
63 2 V
63 3 V
63 2 V
64 2 V
63 2 V
63 2 V
63 2 V
63 2 V
63 2 V
63 2 V
63 2 V
63 2 V
64 1 V
63 2 V
63 2 V
63 1 V
63 2 V
63 1 V
63 2 V
63 1 V
63 1 V
64 2 V
63 1 V
63 1 V
63 2 V
63 1 V
63 1 V
63 1 V
63 2 V
63 1 V
64 1 V
63 1 V
63 1 V
63 1 V
63 1 V
4.000 UL
LT2
LTb
6311 4599 M
[ [(Italic) 140.0 0.0 true true 0 (l)]
[(Times New Roman 12) 140.0 0.0 true true 0 (=1)]
] -46.7 MRshow
LT2
6395 4599 M
399 0 V
1354 4872 M
54 -411 V
63 -360 V
63 -274 V
64 -214 V
63 -169 V
63 -135 V
63 -111 V
63 -90 V
63 -75 V
63 -63 V
63 -53 V
63 -44 V
64 -39 V
63 -32 V
63 -28 V
63 -25 V
63 -21 V
63 -19 V
63 -16 V
63 -14 V
63 -12 V
64 -11 V
63 -10 V
63 -9 V
63 -7 V
63 -7 V
63 -6 V
63 -6 V
63 -5 V
63 -4 V
64 -4 V
63 -3 V
63 -3 V
63 -3 V
63 -2 V
63 -2 V
63 -2 V
63 -2 V
63 -2 V
64 -1 V
63 -1 V
63 -1 V
63 -1 V
63 -1 V
63 -1 V
63 0 V
63 -1 V
63 0 V
64 -1 V
63 0 V
63 0 V
63 0 V
63 -1 V
63 0 V
63 0 V
63 0 V
63 0 V
64 0 V
63 0 V
63 1 V
63 0 V
63 0 V
63 0 V
63 0 V
63 0 V
63 1 V
64 0 V
63 0 V
63 0 V
63 1 V
63 0 V
63 0 V
63 0 V
63 1 V
63 0 V
64 0 V
63 1 V
63 0 V
63 0 V
63 1 V
63 0 V
63 0 V
63 1 V
63 0 V
64 0 V
63 1 V
63 0 V
63 0 V
63 1 V
4.000 UL
LT1
LTb
6311 4459 M
[ [(Italic) 140.0 0.0 true true 0 (l)]
[(Times New Roman 12) 140.0 0.0 true true 0 (=2)]
] -46.7 MRshow
LT1
6395 4459 M
399 0 V
1910 4872 M
3 -14 V
63 -241 V
63 -205 V
63 -178 V
64 -154 V
63 -134 V
63 -118 V
63 -104 V
63 -92 V
63 -82 V
63 -73 V
63 -66 V
63 -59 V
64 -53 V
63 -48 V
63 -44 V
63 -40 V
63 -36 V
63 -33 V
63 -30 V
63 -28 V
63 -26 V
64 -24 V
63 -22 V
63 -20 V
63 -18 V
63 -18 V
63 -16 V
63 -15 V
63 -14 V
63 -13 V
64 -12 V
63 -12 V
63 -11 V
63 -10 V
63 -9 V
63 -9 V
63 -8 V
63 -8 V
63 -7 V
64 -7 V
63 -7 V
63 -6 V
63 -6 V
63 -6 V
63 -5 V
63 -5 V
63 -4 V
63 -5 V
64 -4 V
63 -4 V
63 -4 V
63 -4 V
63 -3 V
63 -3 V
63 -3 V
63 -3 V
63 -3 V
64 -3 V
63 -3 V
63 -2 V
63 -2 V
63 -3 V
63 -2 V
63 -2 V
63 -2 V
63 -2 V
64 -2 V
63 -1 V
63 -2 V
63 -1 V
63 -2 V
63 -1 V
63 -2 V
63 -1 V
63 -1 V
64 -2 V
63 -1 V
63 -1 V
63 -1 V
63 -1 V
4.000 UL
LT3
LTb
6311 4319 M
[ [(Italic) 140.0 0.0 true true 0 (l)]
[(Times New Roman 12) 140.0 0.0 true true 0 (=3)]
] -46.7 MRshow
LT3
6395 4319 M
399 0 V
2459 4872 M
22 -61 V
63 -159 V
63 -143 V
63 -128 V
64 -117 V
63 -105 V
63 -97 V
63 -88 V
63 -80 V
63 -74 V
63 -68 V
63 -62 V
63 -58 V
64 -54 V
63 -49 V
63 -46 V
63 -43 V
63 -40 V
63 -37 V
63 -35 V
63 -32 V
63 -31 V
64 -28 V
63 -27 V
63 -25 V
63 -24 V
63 -22 V
63 -21 V
63 -20 V
63 -19 V
63 -18 V
64 -16 V
63 -16 V
63 -16 V
63 -14 V
63 -14 V
63 -12 V
63 -13 V
63 -12 V
63 -11 V
64 -10 V
63 -11 V
63 -9 V
63 -10 V
63 -8 V
63 -9 V
63 -8 V
63 -8 V
63 -7 V
64 -7 V
63 -7 V
63 -7 V
63 -6 V
63 -6 V
63 -6 V
63 -5 V
63 -6 V
63 -5 V
64 -5 V
63 -5 V
63 -4 V
63 -5 V
63 -4 V
63 -4 V
63 -4 V
63 -4 V
63 -4 V
64 -3 V
63 -4 V
63 -3 V
63 -3 V
63 -3 V
1.000 UL
LTb
714 420 M
6248 0 V
0 4452 V
-6248 0 V
714 420 L
1.000 UP
stroke
grestore
end
showpage
%%Trailer
%%DocumentFonts: Italic Times New Roman 12
