%!PS-Adobe-2.0 EPSF-2.0
%%Title: Osc_harm_ff.eps
%%Creator: gnuplot 4.2 patchlevel 2 
%%CreationDate: Sun Nov  4 00:51:05 2007
%%DocumentFonts: (atend)
%%BoundingBox: 50 50 410 302
%%EndComments
%%BeginProlog
/gnudict 256 dict def
gnudict begin
%
% The following 6 true/false flags may be edited by hand if required
% The unit line width may also be changed
%
/Color true def
/Blacktext false def
/Solid true def
/Dashlength 1 def
/Landscape false def
/Level1 false def
/Rounded false def
/TransparentPatterns false def
/gnulinewidth 5.000 def
/userlinewidth gnulinewidth def
%
/vshift -46 def
/dl1 {
  10.0 Dashlength mul mul
  Rounded { currentlinewidth 0.75 mul sub dup 0 le { pop 0.01 } if } if
} def
/dl2 {
  10.0 Dashlength mul mul
  Rounded { currentlinewidth 0.75 mul add } if
} def
/hpt_ 31.5 def
/vpt_ 31.5 def
/hpt hpt_ def
/vpt vpt_ def
Level1 {} {
/SDict 10 dict def
systemdict /pdfmark known not {
  userdict /pdfmark systemdict /cleartomark get put
} if
SDict begin [
  /Title (Osc_harm_ff.eps)
  /Subject (gnuplot plot)
  /Creator (gnuplot 4.2 patchlevel 2 )
  /Author (Łukasz Rajchel)
%  /Producer (gnuplot)
%  /Keywords ()
  /CreationDate (Sun Nov  4 00:51:05 2007)
  /DOCINFO pdfmark
end
} ifelse
%
% Gnuplot Prolog Version 4.2 (August 2006)
%
/M {moveto} bind def
/L {lineto} bind def
/R {rmoveto} bind def
/V {rlineto} bind def
/N {newpath moveto} bind def
/Z {closepath} bind def
/C {setrgbcolor} bind def
/f {rlineto fill} bind def
/vpt2 vpt 2 mul def
/hpt2 hpt 2 mul def
/Lshow {currentpoint stroke M 0 vshift R 
	Blacktext {gsave 0 setgray show grestore} {show} ifelse} def
/Rshow {currentpoint stroke M dup stringwidth pop neg vshift R
	Blacktext {gsave 0 setgray show grestore} {show} ifelse} def
/Cshow {currentpoint stroke M dup stringwidth pop -2 div vshift R 
	Blacktext {gsave 0 setgray show grestore} {show} ifelse} def
/UP {dup vpt_ mul /vpt exch def hpt_ mul /hpt exch def
  /hpt2 hpt 2 mul def /vpt2 vpt 2 mul def} def
/DL {Color {setrgbcolor Solid {pop []} if 0 setdash}
 {pop pop pop 0 setgray Solid {pop []} if 0 setdash} ifelse} def
/BL {stroke userlinewidth 2 mul setlinewidth
	Rounded {1 setlinejoin 1 setlinecap} if} def
/AL {stroke userlinewidth 2 div setlinewidth
	Rounded {1 setlinejoin 1 setlinecap} if} def
/UL {dup gnulinewidth mul /userlinewidth exch def
	dup 1 lt {pop 1} if 10 mul /udl exch def} def
/PL {stroke userlinewidth setlinewidth
	Rounded {1 setlinejoin 1 setlinecap} if} def
% Default Line colors
/LCw {1 1 1} def
/LCb {0 0 0} def
/LCa {0 0 0} def
/LC0 {1 0 0} def
/LC1 {0 1 0} def
/LC2 {0 0 1} def
/LC3 {1 0 1} def
/LC4 {0 1 1} def
/LC5 {1 1 0} def
/LC6 {0 0 0} def
/LC7 {1 0.3 0} def
/LC8 {0.5 0.5 0.5} def
% Default Line Types
/LTw {PL [] 1 setgray} def
/LTb {BL [] LCb DL} def
/LTa {AL [1 udl mul 2 udl mul] 0 setdash LCa setrgbcolor} def
/LT0 {PL [] LC0 DL} def
/LT1 {PL [4 dl1 2 dl2] LC1 DL} def
/LT2 {PL [2 dl1 3 dl2] LC2 DL} def
/LT3 {PL [1 dl1 1.5 dl2] LC3 DL} def
/LT4 {PL [6 dl1 2 dl2 1 dl1 2 dl2] LC4 DL} def
/LT5 {PL [3 dl1 3 dl2 1 dl1 3 dl2] LC5 DL} def
/LT6 {PL [2 dl1 2 dl2 2 dl1 6 dl2] LC6 DL} def
/LT7 {PL [1 dl1 2 dl2 6 dl1 2 dl2 1 dl1 2 dl2] LC7 DL} def
/LT8 {PL [2 dl1 2 dl2 2 dl1 2 dl2 2 dl1 2 dl2 2 dl1 4 dl2] LC8 DL} def
/Pnt {stroke [] 0 setdash gsave 1 setlinecap M 0 0 V stroke grestore} def
/Dia {stroke [] 0 setdash 2 copy vpt add M
  hpt neg vpt neg V hpt vpt neg V
  hpt vpt V hpt neg vpt V closepath stroke
  Pnt} def
/Pls {stroke [] 0 setdash vpt sub M 0 vpt2 V
  currentpoint stroke M
  hpt neg vpt neg R hpt2 0 V stroke
 } def
/Box {stroke [] 0 setdash 2 copy exch hpt sub exch vpt add M
  0 vpt2 neg V hpt2 0 V 0 vpt2 V
  hpt2 neg 0 V closepath stroke
  Pnt} def
/Crs {stroke [] 0 setdash exch hpt sub exch vpt add M
  hpt2 vpt2 neg V currentpoint stroke M
  hpt2 neg 0 R hpt2 vpt2 V stroke} def
/TriU {stroke [] 0 setdash 2 copy vpt 1.12 mul add M
  hpt neg vpt -1.62 mul V
  hpt 2 mul 0 V
  hpt neg vpt 1.62 mul V closepath stroke
  Pnt} def
/Star {2 copy Pls Crs} def
/BoxF {stroke [] 0 setdash exch hpt sub exch vpt add M
  0 vpt2 neg V hpt2 0 V 0 vpt2 V
  hpt2 neg 0 V closepath fill} def
/TriUF {stroke [] 0 setdash vpt 1.12 mul add M
  hpt neg vpt -1.62 mul V
  hpt 2 mul 0 V
  hpt neg vpt 1.62 mul V closepath fill} def
/TriD {stroke [] 0 setdash 2 copy vpt 1.12 mul sub M
  hpt neg vpt 1.62 mul V
  hpt 2 mul 0 V
  hpt neg vpt -1.62 mul V closepath stroke
  Pnt} def
/TriDF {stroke [] 0 setdash vpt 1.12 mul sub M
  hpt neg vpt 1.62 mul V
  hpt 2 mul 0 V
  hpt neg vpt -1.62 mul V closepath fill} def
/DiaF {stroke [] 0 setdash vpt add M
  hpt neg vpt neg V hpt vpt neg V
  hpt vpt V hpt neg vpt V closepath fill} def
/Pent {stroke [] 0 setdash 2 copy gsave
  translate 0 hpt M 4 {72 rotate 0 hpt L} repeat
  closepath stroke grestore Pnt} def
/PentF {stroke [] 0 setdash gsave
  translate 0 hpt M 4 {72 rotate 0 hpt L} repeat
  closepath fill grestore} def
/Circle {stroke [] 0 setdash 2 copy
  hpt 0 360 arc stroke Pnt} def
/CircleF {stroke [] 0 setdash hpt 0 360 arc fill} def
/C0 {BL [] 0 setdash 2 copy moveto vpt 90 450 arc} bind def
/C1 {BL [] 0 setdash 2 copy moveto
	2 copy vpt 0 90 arc closepath fill
	vpt 0 360 arc closepath} bind def
/C2 {BL [] 0 setdash 2 copy moveto
	2 copy vpt 90 180 arc closepath fill
	vpt 0 360 arc closepath} bind def
/C3 {BL [] 0 setdash 2 copy moveto
	2 copy vpt 0 180 arc closepath fill
	vpt 0 360 arc closepath} bind def
/C4 {BL [] 0 setdash 2 copy moveto
	2 copy vpt 180 270 arc closepath fill
	vpt 0 360 arc closepath} bind def
/C5 {BL [] 0 setdash 2 copy moveto
	2 copy vpt 0 90 arc
	2 copy moveto
	2 copy vpt 180 270 arc closepath fill
	vpt 0 360 arc} bind def
/C6 {BL [] 0 setdash 2 copy moveto
	2 copy vpt 90 270 arc closepath fill
	vpt 0 360 arc closepath} bind def
/C7 {BL [] 0 setdash 2 copy moveto
	2 copy vpt 0 270 arc closepath fill
	vpt 0 360 arc closepath} bind def
/C8 {BL [] 0 setdash 2 copy moveto
	2 copy vpt 270 360 arc closepath fill
	vpt 0 360 arc closepath} bind def
/C9 {BL [] 0 setdash 2 copy moveto
	2 copy vpt 270 450 arc closepath fill
	vpt 0 360 arc closepath} bind def
/C10 {BL [] 0 setdash 2 copy 2 copy moveto vpt 270 360 arc closepath fill
	2 copy moveto
	2 copy vpt 90 180 arc closepath fill
	vpt 0 360 arc closepath} bind def
/C11 {BL [] 0 setdash 2 copy moveto
	2 copy vpt 0 180 arc closepath fill
	2 copy moveto
	2 copy vpt 270 360 arc closepath fill
	vpt 0 360 arc closepath} bind def
/C12 {BL [] 0 setdash 2 copy moveto
	2 copy vpt 180 360 arc closepath fill
	vpt 0 360 arc closepath} bind def
/C13 {BL [] 0 setdash 2 copy moveto
	2 copy vpt 0 90 arc closepath fill
	2 copy moveto
	2 copy vpt 180 360 arc closepath fill
	vpt 0 360 arc closepath} bind def
/C14 {BL [] 0 setdash 2 copy moveto
	2 copy vpt 90 360 arc closepath fill
	vpt 0 360 arc} bind def
/C15 {BL [] 0 setdash 2 copy vpt 0 360 arc closepath fill
	vpt 0 360 arc closepath} bind def
/Rec {newpath 4 2 roll moveto 1 index 0 rlineto 0 exch rlineto
	neg 0 rlineto closepath} bind def
/Square {dup Rec} bind def
/Bsquare {vpt sub exch vpt sub exch vpt2 Square} bind def
/S0 {BL [] 0 setdash 2 copy moveto 0 vpt rlineto BL Bsquare} bind def
/S1 {BL [] 0 setdash 2 copy vpt Square fill Bsquare} bind def
/S2 {BL [] 0 setdash 2 copy exch vpt sub exch vpt Square fill Bsquare} bind def
/S3 {BL [] 0 setdash 2 copy exch vpt sub exch vpt2 vpt Rec fill Bsquare} bind def
/S4 {BL [] 0 setdash 2 copy exch vpt sub exch vpt sub vpt Square fill Bsquare} bind def
/S5 {BL [] 0 setdash 2 copy 2 copy vpt Square fill
	exch vpt sub exch vpt sub vpt Square fill Bsquare} bind def
/S6 {BL [] 0 setdash 2 copy exch vpt sub exch vpt sub vpt vpt2 Rec fill Bsquare} bind def
/S7 {BL [] 0 setdash 2 copy exch vpt sub exch vpt sub vpt vpt2 Rec fill
	2 copy vpt Square fill Bsquare} bind def
/S8 {BL [] 0 setdash 2 copy vpt sub vpt Square fill Bsquare} bind def
/S9 {BL [] 0 setdash 2 copy vpt sub vpt vpt2 Rec fill Bsquare} bind def
/S10 {BL [] 0 setdash 2 copy vpt sub vpt Square fill 2 copy exch vpt sub exch vpt Square fill
	Bsquare} bind def
/S11 {BL [] 0 setdash 2 copy vpt sub vpt Square fill 2 copy exch vpt sub exch vpt2 vpt Rec fill
	Bsquare} bind def
/S12 {BL [] 0 setdash 2 copy exch vpt sub exch vpt sub vpt2 vpt Rec fill Bsquare} bind def
/S13 {BL [] 0 setdash 2 copy exch vpt sub exch vpt sub vpt2 vpt Rec fill
	2 copy vpt Square fill Bsquare} bind def
/S14 {BL [] 0 setdash 2 copy exch vpt sub exch vpt sub vpt2 vpt Rec fill
	2 copy exch vpt sub exch vpt Square fill Bsquare} bind def
/S15 {BL [] 0 setdash 2 copy Bsquare fill Bsquare} bind def
/D0 {gsave translate 45 rotate 0 0 S0 stroke grestore} bind def
/D1 {gsave translate 45 rotate 0 0 S1 stroke grestore} bind def
/D2 {gsave translate 45 rotate 0 0 S2 stroke grestore} bind def
/D3 {gsave translate 45 rotate 0 0 S3 stroke grestore} bind def
/D4 {gsave translate 45 rotate 0 0 S4 stroke grestore} bind def
/D5 {gsave translate 45 rotate 0 0 S5 stroke grestore} bind def
/D6 {gsave translate 45 rotate 0 0 S6 stroke grestore} bind def
/D7 {gsave translate 45 rotate 0 0 S7 stroke grestore} bind def
/D8 {gsave translate 45 rotate 0 0 S8 stroke grestore} bind def
/D9 {gsave translate 45 rotate 0 0 S9 stroke grestore} bind def
/D10 {gsave translate 45 rotate 0 0 S10 stroke grestore} bind def
/D11 {gsave translate 45 rotate 0 0 S11 stroke grestore} bind def
/D12 {gsave translate 45 rotate 0 0 S12 stroke grestore} bind def
/D13 {gsave translate 45 rotate 0 0 S13 stroke grestore} bind def
/D14 {gsave translate 45 rotate 0 0 S14 stroke grestore} bind def
/D15 {gsave translate 45 rotate 0 0 S15 stroke grestore} bind def
/DiaE {stroke [] 0 setdash vpt add M
  hpt neg vpt neg V hpt vpt neg V
  hpt vpt V hpt neg vpt V closepath stroke} def
/BoxE {stroke [] 0 setdash exch hpt sub exch vpt add M
  0 vpt2 neg V hpt2 0 V 0 vpt2 V
  hpt2 neg 0 V closepath stroke} def
/TriUE {stroke [] 0 setdash vpt 1.12 mul add M
  hpt neg vpt -1.62 mul V
  hpt 2 mul 0 V
  hpt neg vpt 1.62 mul V closepath stroke} def
/TriDE {stroke [] 0 setdash vpt 1.12 mul sub M
  hpt neg vpt 1.62 mul V
  hpt 2 mul 0 V
  hpt neg vpt -1.62 mul V closepath stroke} def
/PentE {stroke [] 0 setdash gsave
  translate 0 hpt M 4 {72 rotate 0 hpt L} repeat
  closepath stroke grestore} def
/CircE {stroke [] 0 setdash 
  hpt 0 360 arc stroke} def
/Opaque {gsave closepath 1 setgray fill grestore 0 setgray closepath} def
/DiaW {stroke [] 0 setdash vpt add M
  hpt neg vpt neg V hpt vpt neg V
  hpt vpt V hpt neg vpt V Opaque stroke} def
/BoxW {stroke [] 0 setdash exch hpt sub exch vpt add M
  0 vpt2 neg V hpt2 0 V 0 vpt2 V
  hpt2 neg 0 V Opaque stroke} def
/TriUW {stroke [] 0 setdash vpt 1.12 mul add M
  hpt neg vpt -1.62 mul V
  hpt 2 mul 0 V
  hpt neg vpt 1.62 mul V Opaque stroke} def
/TriDW {stroke [] 0 setdash vpt 1.12 mul sub M
  hpt neg vpt 1.62 mul V
  hpt 2 mul 0 V
  hpt neg vpt -1.62 mul V Opaque stroke} def
/PentW {stroke [] 0 setdash gsave
  translate 0 hpt M 4 {72 rotate 0 hpt L} repeat
  Opaque stroke grestore} def
/CircW {stroke [] 0 setdash 
  hpt 0 360 arc Opaque stroke} def
/BoxFill {gsave Rec 1 setgray fill grestore} def
/Density {
  /Fillden exch def
  currentrgbcolor
  /ColB exch def /ColG exch def /ColR exch def
  /ColR ColR Fillden mul Fillden sub 1 add def
  /ColG ColG Fillden mul Fillden sub 1 add def
  /ColB ColB Fillden mul Fillden sub 1 add def
  ColR ColG ColB setrgbcolor} def
/BoxColFill {gsave Rec PolyFill} def
/PolyFill {gsave Density fill grestore grestore} def
/h {rlineto rlineto rlineto gsave fill grestore} bind def
%
% PostScript Level 1 Pattern Fill routine for rectangles
% Usage: x y w h s a XX PatternFill
%	x,y = lower left corner of box to be filled
%	w,h = width and height of box
%	  a = angle in degrees between lines and x-axis
%	 XX = 0/1 for no/yes cross-hatch
%
/PatternFill {gsave /PFa [ 9 2 roll ] def
  PFa 0 get PFa 2 get 2 div add PFa 1 get PFa 3 get 2 div add translate
  PFa 2 get -2 div PFa 3 get -2 div PFa 2 get PFa 3 get Rec
  gsave 1 setgray fill grestore clip
  currentlinewidth 0.5 mul setlinewidth
  /PFs PFa 2 get dup mul PFa 3 get dup mul add sqrt def
  0 0 M PFa 5 get rotate PFs -2 div dup translate
  0 1 PFs PFa 4 get div 1 add floor cvi
	{PFa 4 get mul 0 M 0 PFs V} for
  0 PFa 6 get ne {
	0 1 PFs PFa 4 get div 1 add floor cvi
	{PFa 4 get mul 0 2 1 roll M PFs 0 V} for
 } if
  stroke grestore} def
%
/languagelevel where
 {pop languagelevel} {1} ifelse
 2 lt
	{/InterpretLevel1 true def}
	{/InterpretLevel1 Level1 def}
 ifelse
%
% PostScript level 2 pattern fill definitions
%
/Level2PatternFill {
/Tile8x8 {/PaintType 2 /PatternType 1 /TilingType 1 /BBox [0 0 8 8] /XStep 8 /YStep 8}
	bind def
/KeepColor {currentrgbcolor [/Pattern /DeviceRGB] setcolorspace} bind def
<< Tile8x8
 /PaintProc {0.5 setlinewidth pop 0 0 M 8 8 L 0 8 M 8 0 L stroke} 
>> matrix makepattern
/Pat1 exch def
<< Tile8x8
 /PaintProc {0.5 setlinewidth pop 0 0 M 8 8 L 0 8 M 8 0 L stroke
	0 4 M 4 8 L 8 4 L 4 0 L 0 4 L stroke}
>> matrix makepattern
/Pat2 exch def
<< Tile8x8
 /PaintProc {0.5 setlinewidth pop 0 0 M 0 8 L
	8 8 L 8 0 L 0 0 L fill}
>> matrix makepattern
/Pat3 exch def
<< Tile8x8
 /PaintProc {0.5 setlinewidth pop -4 8 M 8 -4 L
	0 12 M 12 0 L stroke}
>> matrix makepattern
/Pat4 exch def
<< Tile8x8
 /PaintProc {0.5 setlinewidth pop -4 0 M 8 12 L
	0 -4 M 12 8 L stroke}
>> matrix makepattern
/Pat5 exch def
<< Tile8x8
 /PaintProc {0.5 setlinewidth pop -2 8 M 4 -4 L
	0 12 M 8 -4 L 4 12 M 10 0 L stroke}
>> matrix makepattern
/Pat6 exch def
<< Tile8x8
 /PaintProc {0.5 setlinewidth pop -2 0 M 4 12 L
	0 -4 M 8 12 L 4 -4 M 10 8 L stroke}
>> matrix makepattern
/Pat7 exch def
<< Tile8x8
 /PaintProc {0.5 setlinewidth pop 8 -2 M -4 4 L
	12 0 M -4 8 L 12 4 M 0 10 L stroke}
>> matrix makepattern
/Pat8 exch def
<< Tile8x8
 /PaintProc {0.5 setlinewidth pop 0 -2 M 12 4 L
	-4 0 M 12 8 L -4 4 M 8 10 L stroke}
>> matrix makepattern
/Pat9 exch def
/Pattern1 {PatternBgnd KeepColor Pat1 setpattern} bind def
/Pattern2 {PatternBgnd KeepColor Pat2 setpattern} bind def
/Pattern3 {PatternBgnd KeepColor Pat3 setpattern} bind def
/Pattern4 {PatternBgnd KeepColor Landscape {Pat5} {Pat4} ifelse setpattern} bind def
/Pattern5 {PatternBgnd KeepColor Landscape {Pat4} {Pat5} ifelse setpattern} bind def
/Pattern6 {PatternBgnd KeepColor Landscape {Pat9} {Pat6} ifelse setpattern} bind def
/Pattern7 {PatternBgnd KeepColor Landscape {Pat8} {Pat7} ifelse setpattern} bind def
} def
%
%
%End of PostScript Level 2 code
%
/PatternBgnd {
  TransparentPatterns {} {gsave 1 setgray fill grestore} ifelse
} def
%
% Substitute for Level 2 pattern fill codes with
% grayscale if Level 2 support is not selected.
%
/Level1PatternFill {
/Pattern1 {0.250 Density} bind def
/Pattern2 {0.500 Density} bind def
/Pattern3 {0.750 Density} bind def
/Pattern4 {0.125 Density} bind def
/Pattern5 {0.375 Density} bind def
/Pattern6 {0.625 Density} bind def
/Pattern7 {0.875 Density} bind def
} def
%
% Now test for support of Level 2 code
%
Level1 {Level1PatternFill} {Level2PatternFill} ifelse
%
/Symbol-Oblique /Symbol findfont [1 0 .167 1 0 0] makefont
dup length dict begin {1 index /FID eq {pop pop} {def} ifelse} forall
currentdict end definefont pop
/MFshow {
   { dup 5 get 3 ge
     { 5 get 3 eq {gsave} {grestore} ifelse }
     {dup dup 0 get findfont exch 1 get scalefont setfont
     [ currentpoint ] exch dup 2 get 0 exch R dup 5 get 2 ne {dup dup 6
     get exch 4 get {show} {stringwidth pop 0 R} ifelse }if dup 5 get 0 eq
     {dup 3 get {2 get neg 0 exch R pop} {pop aload pop M} ifelse} {dup 5
     get 1 eq {dup 2 get exch dup 3 get exch 6 get stringwidth pop -2 div
     dup 0 R} {dup 6 get stringwidth pop -2 div 0 R 6 get
     show 2 index {aload pop M neg 3 -1 roll neg R pop pop} {pop pop pop
     pop aload pop M} ifelse }ifelse }ifelse }
     ifelse }
   forall} bind def
/MFwidth {0 exch { dup 5 get 3 ge { 5 get 3 eq { 0 } { pop } ifelse }
 {dup 3 get{dup dup 0 get findfont exch 1 get scalefont setfont
     6 get stringwidth pop add} {pop} ifelse} ifelse} forall} bind def
/MLshow { currentpoint stroke M
  0 exch R
  Blacktext {gsave 0 setgray MFshow grestore} {MFshow} ifelse } bind def
/MRshow { currentpoint stroke M
  exch dup MFwidth neg 3 -1 roll R
  Blacktext {gsave 0 setgray MFshow grestore} {MFshow} ifelse } bind def
/MCshow { currentpoint stroke M
  exch dup MFwidth -2 div 3 -1 roll R
  Blacktext {gsave 0 setgray MFshow grestore} {MFshow} ifelse } bind def
/XYsave    { [( ) 1 2 true false 3 ()] } bind def
/XYrestore { [( ) 1 2 true false 4 ()] } bind def
end
%%EndProlog
gnudict begin
gsave
50 50 translate
0.050 0.050 scale
0 setgray
newpath
(Times New Roman 12) findfont 140 scalefont setfont
1.000 UL
LTb
1.000 UL
LTa
490 682 M
6472 0 V
stroke
LTb
490 682 M
63 0 V
6409 0 R
-63 0 V
stroke
406 682 M
[ [(Italic) 140.0 0.0 true true 0 (v)]
[(Times New Roman 12) 140.0 0.0 true true 0 (=0)]
] -46.7 MRshow
1.000 UL
LTb
1.000 UL
LTa
490 1206 M
6472 0 V
stroke
LTb
490 1206 M
63 0 V
6409 0 R
-63 0 V
stroke
406 1206 M
[ [(Italic) 140.0 0.0 true true 0 (v)]
[(Times New Roman 12) 140.0 0.0 true true 0 (=1)]
] -46.7 MRshow
1.000 UL
LTb
1.000 UL
LTa
490 1729 M
6472 0 V
stroke
LTb
490 1729 M
63 0 V
6409 0 R
-63 0 V
stroke
406 1729 M
[ [(Italic) 140.0 0.0 true true 0 (v)]
[(Times New Roman 12) 140.0 0.0 true true 0 (=2)]
] -46.7 MRshow
1.000 UL
LTb
1.000 UL
LTa
490 2253 M
6472 0 V
stroke
LTb
490 2253 M
63 0 V
6409 0 R
-63 0 V
stroke
406 2253 M
[ [(Italic) 140.0 0.0 true true 0 (v)]
[(Times New Roman 12) 140.0 0.0 true true 0 (=3)]
] -46.7 MRshow
1.000 UL
LTb
1.000 UL
LTa
490 2777 M
6472 0 V
stroke
LTb
490 2777 M
63 0 V
6409 0 R
-63 0 V
stroke
406 2777 M
[ [(Italic) 140.0 0.0 true true 0 (v)]
[(Times New Roman 12) 140.0 0.0 true true 0 (=4)]
] -46.7 MRshow
1.000 UL
LTb
1.000 UL
LTa
490 3301 M
6472 0 V
stroke
LTb
490 3301 M
63 0 V
6409 0 R
-63 0 V
stroke
406 3301 M
[ [(Italic) 140.0 0.0 true true 0 (v)]
[(Times New Roman 12) 140.0 0.0 true true 0 (=5)]
] -46.7 MRshow
1.000 UL
LTb
1.000 UL
LTa
490 3824 M
6472 0 V
stroke
LTb
490 3824 M
63 0 V
6409 0 R
-63 0 V
stroke
406 3824 M
[ [(Italic) 140.0 0.0 true true 0 (v)]
[(Times New Roman 12) 140.0 0.0 true true 0 (=6)]
] -46.7 MRshow
1.000 UL
LTb
1.000 UL
LTa
490 4348 M
6472 0 V
stroke
LTb
490 4348 M
63 0 V
6409 0 R
-63 0 V
stroke
406 4348 M
[ [(Italic) 140.0 0.0 true true 0 (v)]
[(Times New Roman 12) 140.0 0.0 true true 0 (=7)]
] -46.7 MRshow
1.000 UL
LTb
1.000 UL
LTa
2108 420 M
0 4452 V
stroke
LTb
2108 420 M
0 63 V
0 4389 R
0 -63 V
stroke
LTa
3726 420 M
0 4452 V
stroke
LTb
3726 420 M
0 63 V
0 4389 R
0 -63 V
stroke
3726 280 M
[ [(Times New Roman 12) 140.0 0.0 true true 0 (0)]
] -46.7 MCshow
1.000 UL
LTb
1.000 UL
LTa
5344 420 M
0 4452 V
stroke
LTb
5344 420 M
0 63 V
0 4389 R
0 -63 V
stroke
490 4872 N
490 420 L
6472 0 V
0 4452 V
-6472 0 V
Z stroke
LCb setrgbcolor
3726 70 M
[ [(Italic) 140.0 0.0 true true 0 (x)]
] -46.7 MCshow
LTb
1.000 UP
1.000 UL
LTb
4.000 UL
LT2
LTb
6311 4739 M
[ [(Symbol) 140.0 0.0 true true 0 (y)]
[(Italic) 112.0 -42.0 true true 0 (v)]
[(Times New Roman 12) 140.0 0.0 true true 0 (\()]
[(Italic) 140.0 0.0 true true 0 (x)]
[(Times New Roman 12) 140.0 0.0 true true 0 (\))]
] -32.7 MRshow
LT2
6395 4739 M
399 0 V
490 682 M
65 0 V
66 0 V
65 0 V
65 0 V
66 0 V
65 0 V
66 0 V
65 0 V
65 0 V
66 0 V
65 0 V
65 1 V
66 0 V
65 0 V
66 1 V
65 0 V
65 1 V
66 1 V
65 1 V
65 1 V
66 2 V
65 2 V
66 3 V
65 3 V
65 4 V
66 5 V
65 5 V
65 6 V
66 8 V
65 8 V
66 9 V
65 10 V
65 11 V
66 12 V
65 13 V
65 13 V
66 14 V
65 15 V
66 15 V
65 14 V
65 14 V
66 14 V
65 13 V
65 11 V
66 10 V
65 8 V
66 7 V
65 4 V
65 2 V
66 0 V
65 -2 V
65 -4 V
66 -7 V
65 -8 V
66 -10 V
65 -11 V
65 -13 V
66 -14 V
65 -14 V
65 -14 V
66 -15 V
65 -15 V
66 -14 V
65 -13 V
65 -13 V
66 -12 V
65 -11 V
65 -10 V
66 -9 V
65 -8 V
66 -8 V
65 -6 V
65 -5 V
66 -5 V
65 -4 V
65 -3 V
66 -3 V
65 -2 V
66 -2 V
65 -1 V
65 -1 V
66 -1 V
65 -1 V
65 0 V
66 -1 V
65 0 V
66 0 V
65 -1 V
65 0 V
66 0 V
65 0 V
65 0 V
66 0 V
65 0 V
66 0 V
65 0 V
65 0 V
66 0 V
65 0 V
490 1206 M
65 0 V
66 0 V
686 1205 L
65 0 V
66 0 V
65 0 V
66 0 V
65 0 V
65 -1 V
66 0 V
65 -1 V
65 -1 V
66 -1 V
65 -1 V
66 -2 V
65 -2 V
65 -3 V
66 -3 V
65 -4 V
65 -5 V
66 -6 V
65 -7 V
66 -8 V
65 -9 V
65 -10 V
66 -12 V
65 -12 V
65 -14 V
66 -14 V
65 -15 V
66 -15 V
65 -16 V
65 -14 V
66 -14 V
65 -12 V
65 -10 V
66 -7 V
65 -4 V
66 -1 V
65 4 V
65 7 V
66 12 V
65 16 V
65 20 V
66 24 V
65 28 V
66 30 V
65 33 V
65 34 V
66 34 V
65 33 V
65 33 V
66 30 V
65 28 V
66 24 V
65 20 V
65 16 V
66 12 V
65 8 V
65 3 V
66 -1 V
65 -4 V
66 -7 V
65 -10 V
65 -12 V
66 -14 V
65 -14 V
65 -15 V
66 -16 V
65 -14 V
66 -15 V
65 -13 V
65 -13 V
66 -12 V
65 -10 V
65 -9 V
66 -8 V
65 -7 V
66 -6 V
65 -5 V
65 -4 V
66 -3 V
65 -3 V
65 -2 V
66 -2 V
65 -1 V
66 -1 V
65 -1 V
65 -1 V
66 0 V
65 0 V
65 -1 V
66 0 V
65 0 V
66 0 V
65 0 V
65 0 V
66 0 V
65 0 V
490 1730 M
65 0 V
66 0 V
65 0 V
65 0 V
66 1 V
65 0 V
66 1 V
1013 1733 L
65 1 V
66 2 V
65 2 V
65 2 V
66 3 V
65 4 V
66 5 V
65 5 V
65 7 V
66 8 V
65 10 V
65 10 V
66 12 V
65 13 V
66 14 V
65 15 V
65 16 V
66 15 V
65 16 V
65 14 V
66 13 V
65 10 V
66 8 V
65 3 V
65 0 V
66 -6 V
65 -10 V
65 -16 V
66 -21 V
65 -26 V
66 -31 V
65 -34 V
65 -36 V
66 -38 V
65 -37 V
65 -35 V
66 -33 V
65 -28 V
66 -22 V
65 -15 V
65 -8 V
66 0 V
65 8 V
65 15 V
66 22 V
65 28 V
66 33 V
65 35 V
65 37 V
66 38 V
65 36 V
65 34 V
66 31 V
65 26 V
66 21 V
65 16 V
65 10 V
66 6 V
65 0 V
65 -3 V
66 -8 V
65 -10 V
66 -13 V
65 -14 V
65 -16 V
66 -15 V
65 -16 V
65 -15 V
66 -14 V
65 -13 V
66 -12 V
65 -10 V
65 -10 V
66 -8 V
65 -7 V
65 -5 V
66 -5 V
65 -4 V
66 -3 V
65 -2 V
65 -2 V
66 -2 V
65 -1 V
65 -1 V
66 -1 V
65 0 V
66 -1 V
65 0 V
65 0 V
66 0 V
65 0 V
490 2252 M
65 0 V
66 0 V
65 -1 V
65 -1 V
66 -1 V
65 -1 V
66 -2 V
65 -3 V
65 -3 V
66 -4 V
65 -4 V
65 -6 V
1340 2219 L
65 -8 V
66 -10 V
65 -11 V
65 -12 V
66 -14 V
65 -15 V
65 -15 V
66 -16 V
65 -16 V
66 -15 V
65 -14 V
65 -11 V
66 -9 V
65 -4 V
65 0 V
66 5 V
65 12 V
66 17 V
65 23 V
65 29 V
66 33 V
65 37 V
65 39 V
66 39 V
65 38 V
66 35 V
65 29 V
65 22 V
66 14 V
65 5 V
65 -5 V
66 -15 V
65 -23 V
66 -31 V
65 -37 V
65 -41 V
66 -42 V
65 -40 V
65 -37 V
66 -31 V
65 -24 V
66 -14 V
65 -6 V
65 5 V
66 14 V
65 22 V
65 30 V
66 34 V
65 38 V
66 40 V
65 39 V
65 36 V
66 34 V
65 28 V
65 23 V
66 18 V
65 11 V
66 5 V
65 1 V
65 -5 V
66 -8 V
65 -12 V
65 -13 V
66 -16 V
65 -15 V
66 -16 V
65 -16 V
65 -15 V
66 -13 V
65 -13 V
65 -11 V
66 -9 V
65 -9 V
66 -6 V
65 -6 V
65 -5 V
66 -4 V
65 -3 V
65 -2 V
66 -2 V
65 -2 V
66 -1 V
65 -1 V
65 0 V
66 -1 V
65 0 V
490 2779 M
65 1 V
66 1 V
65 2 V
65 2 V
66 3 V
65 3 V
66 5 V
65 5 V
65 6 V
66 8 V
65 9 V
65 11 V
66 12 V
65 13 V
66 15 V
65 16 V
65 16 V
1667 2923 L
65 16 V
65 14 V
66 11 V
65 9 V
66 4 V
65 -1 V
65 -7 V
66 -13 V
65 -20 V
65 -26 V
66 -32 V
65 -36 V
66 -40 V
65 -40 V
65 -40 V
66 -37 V
65 -31 V
65 -24 V
66 -15 V
65 -4 V
66 7 V
65 18 V
65 28 V
66 36 V
65 41 V
65 44 V
66 43 V
65 40 V
66 32 V
65 24 V
65 12 V
66 0 V
65 -12 V
65 -24 V
66 -32 V
65 -40 V
66 -43 V
65 -44 V
65 -41 V
66 -36 V
65 -28 V
65 -18 V
66 -7 V
65 4 V
66 15 V
65 24 V
65 31 V
66 37 V
65 40 V
65 40 V
66 40 V
65 36 V
66 32 V
65 26 V
65 20 V
66 13 V
65 7 V
65 1 V
66 -4 V
65 -9 V
66 -11 V
65 -14 V
65 -16 V
66 -16 V
65 -16 V
65 -16 V
66 -15 V
65 -13 V
66 -12 V
65 -11 V
65 -9 V
66 -8 V
65 -6 V
65 -5 V
66 -5 V
65 -3 V
66 -3 V
65 -2 V
65 -2 V
66 -1 V
65 -1 V
490 3295 M
65 -2 V
66 -3 V
65 -4 V
65 -4 V
66 -6 V
65 -7 V
66 -8 V
65 -9 V
65 -11 V
66 -13 V
65 -14 V
65 -15 V
66 -17 V
65 -16 V
66 -16 V
65 -15 V
65 -13 V
66 -10 V
65 -6 V
65 -1 V
66 5 V
65 12 V
1994 3141 L
65 25 V
65 32 V
66 36 V
65 41 V
65 42 V
66 40 V
65 38 V
66 31 V
65 22 V
65 12 V
66 0 V
65 -12 V
65 -23 V
66 -33 V
65 -41 V
66 -45 V
65 -45 V
65 -42 V
66 -35 V
65 -24 V
65 -12 V
66 2 V
65 16 V
66 29 V
65 38 V
65 44 V
66 47 V
65 45 V
65 38 V
66 28 V
65 16 V
66 2 V
65 -11 V
65 -25 V
66 -34 V
65 -42 V
65 -46 V
66 -45 V
65 -40 V
66 -34 V
65 -23 V
65 -12 V
66 0 V
65 12 V
65 23 V
66 31 V
65 37 V
66 41 V
65 42 V
65 40 V
66 37 V
65 31 V
65 26 V
66 19 V
65 11 V
66 5 V
65 0 V
65 -6 V
66 -10 V
65 -13 V
65 -15 V
66 -17 V
65 -16 V
66 -16 V
65 -15 V
65 -14 V
66 -13 V
65 -11 V
65 -10 V
66 -8 V
65 -7 V
66 -5 V
65 -5 V
65 -3 V
66 -3 V
65 -2 V
490 3838 M
65 5 V
66 5 V
65 7 V
65 8 V
66 10 V
65 11 V
66 13 V
65 14 V
65 16 V
66 16 V
65 17 V
65 16 V
66 15 V
65 12 V
66 10 V
65 4 V
65 -1 V
66 -7 V
65 -15 V
65 -22 V
66 -29 V
65 -35 V
66 -40 V
65 -42 V
65 -42 V
66 -40 V
65 -33 V
2320 3685 L
66 -15 V
65 -2 V
66 10 V
65 23 V
65 34 V
66 42 V
65 46 V
65 46 V
66 42 V
65 34 V
66 21 V
65 7 V
65 -8 V
66 -23 V
65 -36 V
65 -44 V
66 -48 V
65 -47 V
66 -41 V
65 -30 V
65 -16 V
66 0 V
65 16 V
65 30 V
66 41 V
65 47 V
66 48 V
65 44 V
65 36 V
66 23 V
65 8 V
65 -7 V
66 -21 V
65 -34 V
66 -42 V
65 -46 V
65 -46 V
66 -42 V
65 -34 V
65 -23 V
66 -10 V
65 2 V
66 15 V
65 26 V
65 33 V
66 40 V
65 42 V
65 42 V
66 40 V
65 35 V
66 29 V
65 22 V
65 15 V
66 7 V
65 1 V
65 -4 V
66 -10 V
65 -12 V
66 -15 V
65 -16 V
65 -17 V
66 -16 V
65 -16 V
65 -14 V
66 -13 V
65 -11 V
66 -10 V
65 -8 V
65 -7 V
66 -5 V
65 -5 V
490 4320 M
65 -8 V
66 -9 V
65 -11 V
65 -13 V
66 -14 V
65 -16 V
66 -16 V
65 -17 V
65 -16 V
66 -15 V
65 -13 V
65 -9 V
66 -5 V
65 1 V
66 9 V
65 15 V
65 24 V
66 30 V
65 37 V
65 41 V
66 43 V
65 42 V
66 39 V
65 32 V
65 22 V
66 9 V
65 -3 V
65 -17 V
66 -30 V
65 -40 V
66 -46 V
65 -48 V
2647 4274 L
66 -37 V
65 -24 V
65 -10 V
66 7 V
65 23 V
66 37 V
65 46 V
65 49 V
66 48 V
65 40 V
65 26 V
66 11 V
65 -7 V
66 -24 V
65 -38 V
65 -48 V
66 -50 V
65 -47 V
65 -38 V
66 -24 V
65 -7 V
66 10 V
65 27 V
65 40 V
66 47 V
65 50 V
65 46 V
66 36 V
65 23 V
66 7 V
65 -9 V
65 -25 V
66 -36 V
65 -45 V
65 -48 V
66 -46 V
65 -39 V
66 -30 V
65 -17 V
65 -4 V
66 10 V
65 22 V
65 32 V
66 38 V
65 43 V
66 43 V
65 41 V
65 36 V
66 31 V
65 23 V
65 16 V
66 8 V
65 1 V
66 -4 V
65 -9 V
65 -13 V
66 -15 V
65 -17 V
65 -17 V
66 -16 V
65 -16 V
66 -14 V
65 -12 V
65 -11 V
66 -10 V
65 -8 V
stroke
LT6
490 682 M
65 0 V
66 0 V
65 0 V
65 0 V
66 0 V
65 0 V
66 0 V
65 0 V
65 0 V
66 0 V
65 0 V
65 0 V
66 0 V
65 0 V
66 0 V
65 0 V
65 0 V
66 0 V
65 0 V
65 0 V
66 0 V
65 0 V
66 0 V
65 0 V
65 0 V
66 0 V
65 0 V
65 0 V
66 0 V
65 0 V
66 0 V
65 0 V
65 0 V
66 0 V
65 0 V
65 0 V
66 0 V
65 0 V
66 0 V
65 0 V
65 0 V
66 0 V
65 0 V
65 0 V
66 0 V
65 0 V
66 0 V
65 0 V
65 0 V
66 0 V
65 0 V
65 0 V
66 0 V
65 0 V
66 0 V
65 0 V
65 0 V
66 0 V
65 0 V
65 0 V
66 0 V
65 0 V
66 0 V
65 0 V
65 0 V
66 0 V
65 0 V
65 0 V
66 0 V
65 0 V
66 0 V
65 0 V
65 0 V
66 0 V
65 0 V
65 0 V
66 0 V
65 0 V
66 0 V
65 0 V
65 0 V
66 0 V
65 0 V
65 0 V
66 0 V
65 0 V
66 0 V
65 0 V
65 0 V
66 0 V
65 0 V
65 0 V
66 0 V
65 0 V
66 0 V
65 0 V
65 0 V
66 0 V
65 0 V
490 1206 M
65 0 V
66 0 V
65 0 V
65 0 V
817 1206 L
65 0 V
66 0 V
65 0 V
65 0 V
66 0 V
65 0 V
65 0 V
66 0 V
65 0 V
66 0 V
65 0 V
65 0 V
66 0 V
65 0 V
65 0 V
66 0 V
65 0 V
66 0 V
65 0 V
65 0 V
66 0 V
65 0 V
65 0 V
66 0 V
65 0 V
66 0 V
65 0 V
65 0 V
66 0 V
65 0 V
65 0 V
66 0 V
65 0 V
66 0 V
65 0 V
65 0 V
66 0 V
65 0 V
65 0 V
66 0 V
65 0 V
66 0 V
65 0 V
65 0 V
66 0 V
65 0 V
65 0 V
66 0 V
65 0 V
66 0 V
65 0 V
65 0 V
66 0 V
65 0 V
65 0 V
66 0 V
65 0 V
66 0 V
65 0 V
65 0 V
66 0 V
65 0 V
65 0 V
66 0 V
65 0 V
66 0 V
65 0 V
65 0 V
66 0 V
65 0 V
65 0 V
66 0 V
65 0 V
66 0 V
65 0 V
65 0 V
66 0 V
65 0 V
65 0 V
66 0 V
65 0 V
66 0 V
65 0 V
65 0 V
66 0 V
65 0 V
65 0 V
66 0 V
65 0 V
66 0 V
65 0 V
65 0 V
66 0 V
65 0 V
490 1729 M
65 0 V
66 0 V
65 0 V
65 0 V
66 0 V
65 0 V
66 0 V
65 0 V
65 0 V
1144 1729 L
65 0 V
65 0 V
66 0 V
65 0 V
66 0 V
65 0 V
65 0 V
66 0 V
65 0 V
65 0 V
66 0 V
65 0 V
66 0 V
65 0 V
65 0 V
66 0 V
65 0 V
65 0 V
66 0 V
65 0 V
66 0 V
65 0 V
65 0 V
66 0 V
65 0 V
65 0 V
66 0 V
65 0 V
66 0 V
65 0 V
65 0 V
66 0 V
65 0 V
65 0 V
66 0 V
65 0 V
66 0 V
65 0 V
65 0 V
66 0 V
65 0 V
65 0 V
66 0 V
65 0 V
66 0 V
65 0 V
65 0 V
66 0 V
65 0 V
65 0 V
66 0 V
65 0 V
66 0 V
65 0 V
65 0 V
66 0 V
65 0 V
65 0 V
66 0 V
65 0 V
66 0 V
65 0 V
65 0 V
66 0 V
65 0 V
65 0 V
66 0 V
65 0 V
66 0 V
65 0 V
65 0 V
66 0 V
65 0 V
65 0 V
66 0 V
65 0 V
66 0 V
65 0 V
65 0 V
66 0 V
65 0 V
65 0 V
66 0 V
65 0 V
66 0 V
65 0 V
65 0 V
66 0 V
65 0 V
490 2253 M
65 0 V
66 0 V
65 0 V
65 0 V
66 0 V
65 0 V
66 0 V
65 0 V
65 0 V
66 0 V
65 0 V
65 0 V
66 0 V
65 0 V
1471 2253 L
65 0 V
65 0 V
66 0 V
65 0 V
65 0 V
66 0 V
65 0 V
66 0 V
65 0 V
65 0 V
66 0 V
65 0 V
65 0 V
66 0 V
65 0 V
66 0 V
65 0 V
65 0 V
66 0 V
65 0 V
65 0 V
66 0 V
65 0 V
66 0 V
65 0 V
65 0 V
66 0 V
65 0 V
65 0 V
66 0 V
65 0 V
66 0 V
65 0 V
65 0 V
66 0 V
65 0 V
65 0 V
66 0 V
65 0 V
66 0 V
65 0 V
65 0 V
66 0 V
65 0 V
65 0 V
66 0 V
65 0 V
66 0 V
65 0 V
65 0 V
66 0 V
65 0 V
65 0 V
66 0 V
65 0 V
66 0 V
65 0 V
65 0 V
66 0 V
65 0 V
65 0 V
66 0 V
65 0 V
66 0 V
65 0 V
65 0 V
66 0 V
65 0 V
65 0 V
66 0 V
65 0 V
66 0 V
65 0 V
65 0 V
66 0 V
65 0 V
65 0 V
66 0 V
65 0 V
66 0 V
65 0 V
65 0 V
66 0 V
65 0 V
490 2777 M
65 0 V
66 0 V
65 0 V
65 0 V
66 0 V
65 0 V
66 0 V
65 0 V
65 0 V
66 0 V
65 0 V
65 0 V
66 0 V
65 0 V
66 0 V
65 0 V
65 0 V
66 0 V
65 0 V
1797 2777 L
66 0 V
65 0 V
66 0 V
65 0 V
65 0 V
66 0 V
65 0 V
65 0 V
66 0 V
65 0 V
66 0 V
65 0 V
65 0 V
66 0 V
65 0 V
65 0 V
66 0 V
65 0 V
66 0 V
65 0 V
65 0 V
66 0 V
65 0 V
65 0 V
66 0 V
65 0 V
66 0 V
65 0 V
65 0 V
66 0 V
65 0 V
65 0 V
66 0 V
65 0 V
66 0 V
65 0 V
65 0 V
66 0 V
65 0 V
65 0 V
66 0 V
65 0 V
66 0 V
65 0 V
65 0 V
66 0 V
65 0 V
65 0 V
66 0 V
65 0 V
66 0 V
65 0 V
65 0 V
66 0 V
65 0 V
65 0 V
66 0 V
65 0 V
66 0 V
65 0 V
65 0 V
66 0 V
65 0 V
65 0 V
66 0 V
65 0 V
66 0 V
65 0 V
65 0 V
66 0 V
65 0 V
65 0 V
66 0 V
65 0 V
66 0 V
65 0 V
65 0 V
66 0 V
65 0 V
490 3301 M
65 0 V
66 0 V
65 0 V
65 0 V
66 0 V
65 0 V
66 0 V
65 0 V
65 0 V
66 0 V
65 0 V
65 0 V
66 0 V
65 0 V
66 0 V
65 0 V
65 0 V
66 0 V
65 0 V
65 0 V
66 0 V
65 0 V
66 0 V
65 0 V
2124 3301 L
66 0 V
65 0 V
65 0 V
66 0 V
65 0 V
66 0 V
65 0 V
65 0 V
66 0 V
65 0 V
65 0 V
66 0 V
65 0 V
66 0 V
65 0 V
65 0 V
66 0 V
65 0 V
65 0 V
66 0 V
65 0 V
66 0 V
65 0 V
65 0 V
66 0 V
65 0 V
65 0 V
66 0 V
65 0 V
66 0 V
65 0 V
65 0 V
66 0 V
65 0 V
65 0 V
66 0 V
65 0 V
66 0 V
65 0 V
65 0 V
66 0 V
65 0 V
65 0 V
66 0 V
65 0 V
66 0 V
65 0 V
65 0 V
66 0 V
65 0 V
65 0 V
66 0 V
65 0 V
66 0 V
65 0 V
65 0 V
66 0 V
65 0 V
65 0 V
66 0 V
65 0 V
66 0 V
65 0 V
65 0 V
66 0 V
65 0 V
65 0 V
66 0 V
65 0 V
66 0 V
65 0 V
65 0 V
66 0 V
65 0 V
490 3824 M
65 0 V
66 0 V
65 0 V
65 0 V
66 0 V
65 0 V
66 0 V
65 0 V
65 0 V
66 0 V
65 0 V
65 0 V
66 0 V
65 0 V
66 0 V
65 0 V
65 0 V
66 0 V
65 0 V
65 0 V
66 0 V
65 0 V
66 0 V
65 0 V
65 0 V
66 0 V
65 0 V
65 0 V
66 0 V
2451 3824 L
66 0 V
65 0 V
65 0 V
66 0 V
65 0 V
65 0 V
66 0 V
65 0 V
66 0 V
65 0 V
65 0 V
66 0 V
65 0 V
65 0 V
66 0 V
65 0 V
66 0 V
65 0 V
65 0 V
66 0 V
65 0 V
65 0 V
66 0 V
65 0 V
66 0 V
65 0 V
65 0 V
66 0 V
65 0 V
65 0 V
66 0 V
65 0 V
66 0 V
65 0 V
65 0 V
66 0 V
65 0 V
65 0 V
66 0 V
65 0 V
66 0 V
65 0 V
65 0 V
66 0 V
65 0 V
65 0 V
66 0 V
65 0 V
66 0 V
65 0 V
65 0 V
66 0 V
65 0 V
65 0 V
66 0 V
65 0 V
66 0 V
65 0 V
65 0 V
66 0 V
65 0 V
65 0 V
66 0 V
65 0 V
66 0 V
65 0 V
65 0 V
66 0 V
65 0 V
490 4348 M
65 0 V
66 0 V
65 0 V
65 0 V
66 0 V
65 0 V
66 0 V
65 0 V
65 0 V
66 0 V
65 0 V
65 0 V
66 0 V
65 0 V
66 0 V
65 0 V
65 0 V
66 0 V
65 0 V
65 0 V
66 0 V
65 0 V
66 0 V
65 0 V
65 0 V
66 0 V
65 0 V
65 0 V
66 0 V
65 0 V
66 0 V
65 0 V
65 0 V
66 0 V
2778 4348 L
65 0 V
66 0 V
65 0 V
66 0 V
65 0 V
65 0 V
66 0 V
65 0 V
65 0 V
66 0 V
65 0 V
66 0 V
65 0 V
65 0 V
66 0 V
65 0 V
65 0 V
66 0 V
65 0 V
66 0 V
65 0 V
65 0 V
66 0 V
65 0 V
65 0 V
66 0 V
65 0 V
66 0 V
65 0 V
65 0 V
66 0 V
65 0 V
65 0 V
66 0 V
65 0 V
66 0 V
65 0 V
65 0 V
66 0 V
65 0 V
65 0 V
66 0 V
65 0 V
66 0 V
65 0 V
65 0 V
66 0 V
65 0 V
65 0 V
66 0 V
65 0 V
66 0 V
65 0 V
65 0 V
66 0 V
65 0 V
65 0 V
66 0 V
65 0 V
66 0 V
65 0 V
65 0 V
66 0 V
65 0 V
stroke
LT0
LTb
6311 4599 M
[ [(Italic) 140.0 0.0 true true 0 (V)]
[(Times New Roman 12) 140.0 0.0 true true 0 (\()]
[(Italic) 140.0 0.0 true true 0 (x)]
[(Times New Roman 12) 140.0 0.0 true true 0 (\))]
] -46.7 MRshow
LT0
6395 4599 M
399 0 V
490 4872 M
65 -178 V
66 -175 V
65 -170 V
65 -168 V
66 -163 V
65 -160 V
66 -156 V
65 -153 V
65 -149 V
66 -145 V
65 -142 V
65 -138 V
66 -135 V
65 -130 V
66 -128 V
65 -123 V
65 -120 V
66 -116 V
65 -113 V
65 -109 V
66 -105 V
65 -102 V
66 -98 V
65 -95 V
65 -91 V
66 -87 V
65 -84 V
65 -79 V
66 -77 V
65 -72 V
66 -70 V
65 -65 V
65 -62 V
66 -58 V
65 -54 V
65 -51 V
66 -48 V
65 -43 V
66 -40 V
65 -36 V
65 -33 V
66 -29 V
65 -26 V
65 -21 V
66 -19 V
65 -14 V
66 -11 V
65 -7 V
65 -4 V
66 0 V
65 4 V
65 7 V
66 11 V
65 14 V
66 19 V
65 21 V
65 26 V
66 29 V
65 33 V
65 36 V
66 40 V
65 43 V
66 48 V
65 51 V
65 54 V
66 58 V
65 62 V
65 65 V
66 70 V
65 72 V
66 77 V
65 79 V
65 84 V
66 87 V
65 91 V
65 95 V
66 98 V
65 102 V
66 105 V
65 109 V
65 113 V
66 116 V
65 120 V
65 123 V
66 128 V
65 130 V
66 135 V
65 138 V
65 142 V
66 145 V
65 149 V
65 153 V
66 156 V
65 160 V
66 163 V
65 168 V
65 170 V
66 175 V
65 178 V
stroke
1.000 UL
LTb
490 4872 N
490 420 L
6472 0 V
0 4452 V
-6472 0 V
Z stroke
1.000 UP
1.000 UL
LTb
stroke
grestore
end
showpage
%%Trailer
%%DocumentFonts: Symbol Italic Times New Roman 12
