%!PS-Adobe-2.0 EPSF-2.0
%%Title: Pudlo_1W_ff.eps
%%Creator: gnuplot 3.8j patchlevel 0
%%CreationDate: Sun Oct 16 09:01:42 2005
%%DocumentFonts: (atend)
%%BoundingBox: 50 50 410 302
%%Orientation: Portrait
%%EndComments
/gnudict 256 dict def
gnudict begin
/Color true def
/Solid true def
/gnulinewidth 5.000 def
/userlinewidth gnulinewidth def
/vshift -46 def
/dl {10.0 mul} def
/hpt_ 31.5 def
/vpt_ 31.5 def
/hpt hpt_ def
/vpt vpt_ def
/Rounded false def
/M {moveto} bind def
/L {lineto} bind def
/R {rmoveto} bind def
/V {rlineto} bind def
/N {newpath moveto} bind def
/C {setrgbcolor} bind def
/f {rlineto fill} bind def
/vpt2 vpt 2 mul def
/hpt2 hpt 2 mul def
/Lshow { currentpoint stroke M
  0 vshift R show } def
/Rshow { currentpoint stroke M
  dup stringwidth pop neg vshift R show } def
/Cshow { currentpoint stroke M
  dup stringwidth pop -2 div vshift R show } def
/UP { dup vpt_ mul /vpt exch def hpt_ mul /hpt exch def
  /hpt2 hpt 2 mul def /vpt2 vpt 2 mul def } def
/DL { Color {setrgbcolor Solid {pop []} if 0 setdash }
 {pop pop pop 0 setgray Solid {pop []} if 0 setdash} ifelse } def
/BL { stroke userlinewidth 2 mul setlinewidth
      Rounded { 1 setlinejoin 1 setlinecap } if } def
/AL { stroke userlinewidth 2 div setlinewidth
      Rounded { 1 setlinejoin 1 setlinecap } if } def
/UL { dup gnulinewidth mul /userlinewidth exch def
      dup 1 lt {pop 1} if 10 mul /udl exch def } def
/PL { stroke userlinewidth setlinewidth
      Rounded { 1 setlinejoin 1 setlinecap } if } def
/LTb { BL [] 0 0 0 DL } def
/LTa { AL [1 udl mul 2 udl mul] 0 setdash 0 0 0 setrgbcolor } def
/LT0 { PL [] 1 0 0 DL } def
/LT1 { PL [4 dl 2 dl] 0 1 0 DL } def
/LT2 { PL [2 dl 3 dl] 0 0 1 DL } def
/LT3 { PL [1 dl 1.5 dl] 1 0 1 DL } def
/LT4 { PL [5 dl 2 dl 1 dl 2 dl] 0 1 1 DL } def
/LT5 { PL [4 dl 3 dl 1 dl 3 dl] 1 1 0 DL } def
/LT6 { PL [2 dl 2 dl 2 dl 4 dl] 0 0 0 DL } def
/LT7 { PL [2 dl 2 dl 2 dl 2 dl 2 dl 4 dl] 1 0.3 0 DL } def
/LT8 { PL [2 dl 2 dl 2 dl 2 dl 2 dl 2 dl 2 dl 4 dl] 0.5 0.5 0.5 DL } def
/Pnt { stroke [] 0 setdash
   gsave 1 setlinecap M 0 0 V stroke grestore } def
/Dia { stroke [] 0 setdash 2 copy vpt add M
  hpt neg vpt neg V hpt vpt neg V
  hpt vpt V hpt neg vpt V closepath stroke
  Pnt } def
/Pls { stroke [] 0 setdash vpt sub M 0 vpt2 V
  currentpoint stroke M
  hpt neg vpt neg R hpt2 0 V stroke
  } def
/Box { stroke [] 0 setdash 2 copy exch hpt sub exch vpt add M
  0 vpt2 neg V hpt2 0 V 0 vpt2 V
  hpt2 neg 0 V closepath stroke
  Pnt } def
/Crs { stroke [] 0 setdash exch hpt sub exch vpt add M
  hpt2 vpt2 neg V currentpoint stroke M
  hpt2 neg 0 R hpt2 vpt2 V stroke } def
/TriU { stroke [] 0 setdash 2 copy vpt 1.12 mul add M
  hpt neg vpt -1.62 mul V
  hpt 2 mul 0 V
  hpt neg vpt 1.62 mul V closepath stroke
  Pnt  } def
/Star { 2 copy Pls Crs } def
/BoxF { stroke [] 0 setdash exch hpt sub exch vpt add M
  0 vpt2 neg V  hpt2 0 V  0 vpt2 V
  hpt2 neg 0 V  closepath fill } def
/TriUF { stroke [] 0 setdash vpt 1.12 mul add M
  hpt neg vpt -1.62 mul V
  hpt 2 mul 0 V
  hpt neg vpt 1.62 mul V closepath fill } def
/TriD { stroke [] 0 setdash 2 copy vpt 1.12 mul sub M
  hpt neg vpt 1.62 mul V
  hpt 2 mul 0 V
  hpt neg vpt -1.62 mul V closepath stroke
  Pnt  } def
/TriDF { stroke [] 0 setdash vpt 1.12 mul sub M
  hpt neg vpt 1.62 mul V
  hpt 2 mul 0 V
  hpt neg vpt -1.62 mul V closepath fill} def
/DiaF { stroke [] 0 setdash vpt add M
  hpt neg vpt neg V hpt vpt neg V
  hpt vpt V hpt neg vpt V closepath fill } def
/Pent { stroke [] 0 setdash 2 copy gsave
  translate 0 hpt M 4 {72 rotate 0 hpt L} repeat
  closepath stroke grestore Pnt } def
/PentF { stroke [] 0 setdash gsave
  translate 0 hpt M 4 {72 rotate 0 hpt L} repeat
  closepath fill grestore } def
/Circle { stroke [] 0 setdash 2 copy
  hpt 0 360 arc stroke Pnt } def
/CircleF { stroke [] 0 setdash hpt 0 360 arc fill } def
/C0 { BL [] 0 setdash 2 copy moveto vpt 90 450  arc } bind def
/C1 { BL [] 0 setdash 2 copy        moveto
       2 copy  vpt 0 90 arc closepath fill
               vpt 0 360 arc closepath } bind def
/C2 { BL [] 0 setdash 2 copy moveto
       2 copy  vpt 90 180 arc closepath fill
               vpt 0 360 arc closepath } bind def
/C3 { BL [] 0 setdash 2 copy moveto
       2 copy  vpt 0 180 arc closepath fill
               vpt 0 360 arc closepath } bind def
/C4 { BL [] 0 setdash 2 copy moveto
       2 copy  vpt 180 270 arc closepath fill
               vpt 0 360 arc closepath } bind def
/C5 { BL [] 0 setdash 2 copy moveto
       2 copy  vpt 0 90 arc
       2 copy moveto
       2 copy  vpt 180 270 arc closepath fill
               vpt 0 360 arc } bind def
/C6 { BL [] 0 setdash 2 copy moveto
      2 copy  vpt 90 270 arc closepath fill
              vpt 0 360 arc closepath } bind def
/C7 { BL [] 0 setdash 2 copy moveto
      2 copy  vpt 0 270 arc closepath fill
              vpt 0 360 arc closepath } bind def
/C8 { BL [] 0 setdash 2 copy moveto
      2 copy vpt 270 360 arc closepath fill
              vpt 0 360 arc closepath } bind def
/C9 { BL [] 0 setdash 2 copy moveto
      2 copy  vpt 270 450 arc closepath fill
              vpt 0 360 arc closepath } bind def
/C10 { BL [] 0 setdash 2 copy 2 copy moveto vpt 270 360 arc closepath fill
       2 copy moveto
       2 copy vpt 90 180 arc closepath fill
               vpt 0 360 arc closepath } bind def
/C11 { BL [] 0 setdash 2 copy moveto
       2 copy  vpt 0 180 arc closepath fill
       2 copy moveto
       2 copy  vpt 270 360 arc closepath fill
               vpt 0 360 arc closepath } bind def
/C12 { BL [] 0 setdash 2 copy moveto
       2 copy  vpt 180 360 arc closepath fill
               vpt 0 360 arc closepath } bind def
/C13 { BL [] 0 setdash  2 copy moveto
       2 copy  vpt 0 90 arc closepath fill
       2 copy moveto
       2 copy  vpt 180 360 arc closepath fill
               vpt 0 360 arc closepath } bind def
/C14 { BL [] 0 setdash 2 copy moveto
       2 copy  vpt 90 360 arc closepath fill
               vpt 0 360 arc } bind def
/C15 { BL [] 0 setdash 2 copy vpt 0 360 arc closepath fill
               vpt 0 360 arc closepath } bind def
/Rec   { newpath 4 2 roll moveto 1 index 0 rlineto 0 exch rlineto
       neg 0 rlineto closepath } bind def
/Square { dup Rec } bind def
/Bsquare { vpt sub exch vpt sub exch vpt2 Square } bind def
/S0 { BL [] 0 setdash 2 copy moveto 0 vpt rlineto BL Bsquare } bind def
/S1 { BL [] 0 setdash 2 copy vpt Square fill Bsquare } bind def
/S2 { BL [] 0 setdash 2 copy exch vpt sub exch vpt Square fill Bsquare } bind def
/S3 { BL [] 0 setdash 2 copy exch vpt sub exch vpt2 vpt Rec fill Bsquare } bind def
/S4 { BL [] 0 setdash 2 copy exch vpt sub exch vpt sub vpt Square fill Bsquare } bind def
/S5 { BL [] 0 setdash 2 copy 2 copy vpt Square fill
       exch vpt sub exch vpt sub vpt Square fill Bsquare } bind def
/S6 { BL [] 0 setdash 2 copy exch vpt sub exch vpt sub vpt vpt2 Rec fill Bsquare } bind def
/S7 { BL [] 0 setdash 2 copy exch vpt sub exch vpt sub vpt vpt2 Rec fill
       2 copy vpt Square fill
       Bsquare } bind def
/S8 { BL [] 0 setdash 2 copy vpt sub vpt Square fill Bsquare } bind def
/S9 { BL [] 0 setdash 2 copy vpt sub vpt vpt2 Rec fill Bsquare } bind def
/S10 { BL [] 0 setdash 2 copy vpt sub vpt Square fill 2 copy exch vpt sub exch vpt Square fill
       Bsquare } bind def
/S11 { BL [] 0 setdash 2 copy vpt sub vpt Square fill 2 copy exch vpt sub exch vpt2 vpt Rec fill
       Bsquare } bind def
/S12 { BL [] 0 setdash 2 copy exch vpt sub exch vpt sub vpt2 vpt Rec fill Bsquare } bind def
/S13 { BL [] 0 setdash 2 copy exch vpt sub exch vpt sub vpt2 vpt Rec fill
       2 copy vpt Square fill Bsquare } bind def
/S14 { BL [] 0 setdash 2 copy exch vpt sub exch vpt sub vpt2 vpt Rec fill
       2 copy exch vpt sub exch vpt Square fill Bsquare } bind def
/S15 { BL [] 0 setdash 2 copy Bsquare fill Bsquare } bind def
/D0 { gsave translate 45 rotate 0 0 S0 stroke grestore } bind def
/D1 { gsave translate 45 rotate 0 0 S1 stroke grestore } bind def
/D2 { gsave translate 45 rotate 0 0 S2 stroke grestore } bind def
/D3 { gsave translate 45 rotate 0 0 S3 stroke grestore } bind def
/D4 { gsave translate 45 rotate 0 0 S4 stroke grestore } bind def
/D5 { gsave translate 45 rotate 0 0 S5 stroke grestore } bind def
/D6 { gsave translate 45 rotate 0 0 S6 stroke grestore } bind def
/D7 { gsave translate 45 rotate 0 0 S7 stroke grestore } bind def
/D8 { gsave translate 45 rotate 0 0 S8 stroke grestore } bind def
/D9 { gsave translate 45 rotate 0 0 S9 stroke grestore } bind def
/D10 { gsave translate 45 rotate 0 0 S10 stroke grestore } bind def
/D11 { gsave translate 45 rotate 0 0 S11 stroke grestore } bind def
/D12 { gsave translate 45 rotate 0 0 S12 stroke grestore } bind def
/D13 { gsave translate 45 rotate 0 0 S13 stroke grestore } bind def
/D14 { gsave translate 45 rotate 0 0 S14 stroke grestore } bind def
/D15 { gsave translate 45 rotate 0 0 S15 stroke grestore } bind def
/DiaE { stroke [] 0 setdash vpt add M
  hpt neg vpt neg V hpt vpt neg V
  hpt vpt V hpt neg vpt V closepath stroke } def
/BoxE { stroke [] 0 setdash exch hpt sub exch vpt add M
  0 vpt2 neg V hpt2 0 V 0 vpt2 V
  hpt2 neg 0 V closepath stroke } def
/TriUE { stroke [] 0 setdash vpt 1.12 mul add M
  hpt neg vpt -1.62 mul V
  hpt 2 mul 0 V
  hpt neg vpt 1.62 mul V closepath stroke } def
/TriDE { stroke [] 0 setdash vpt 1.12 mul sub M
  hpt neg vpt 1.62 mul V
  hpt 2 mul 0 V
  hpt neg vpt -1.62 mul V closepath stroke } def
/PentE { stroke [] 0 setdash gsave
  translate 0 hpt M 4 {72 rotate 0 hpt L} repeat
  closepath stroke grestore } def
/CircE { stroke [] 0 setdash 
  hpt 0 360 arc stroke } def
/Opaque { gsave closepath 1 setgray fill grestore 0 setgray closepath } def
/DiaW { stroke [] 0 setdash vpt add M
  hpt neg vpt neg V hpt vpt neg V
  hpt vpt V hpt neg vpt V Opaque stroke } def
/BoxW { stroke [] 0 setdash exch hpt sub exch vpt add M
  0 vpt2 neg V hpt2 0 V 0 vpt2 V
  hpt2 neg 0 V Opaque stroke } def
/TriUW { stroke [] 0 setdash vpt 1.12 mul add M
  hpt neg vpt -1.62 mul V
  hpt 2 mul 0 V
  hpt neg vpt 1.62 mul V Opaque stroke } def
/TriDW { stroke [] 0 setdash vpt 1.12 mul sub M
  hpt neg vpt 1.62 mul V
  hpt 2 mul 0 V
  hpt neg vpt -1.62 mul V Opaque stroke } def
/PentW { stroke [] 0 setdash gsave
  translate 0 hpt M 4 {72 rotate 0 hpt L} repeat
  Opaque stroke grestore } def
/CircW { stroke [] 0 setdash 
  hpt 0 360 arc Opaque stroke } def
/BoxFill { gsave Rec 1 setgray fill grestore } def
/BoxColFill {
  gsave Rec
  /Fillden exch def
  currentrgbcolor
  /ColB exch def /ColG exch def /ColR exch def
  /ColR ColR Fillden mul Fillden sub 1 add def
  /ColG ColG Fillden mul Fillden sub 1 add def
  /ColB ColB Fillden mul Fillden sub 1 add def
  ColR ColG ColB setrgbcolor
  fill grestore } def
%
% PostScript Level 1 Pattern Fill routine
% Usage: x y w h s a XX PatternFill
%	x,y = lower left corner of box to be filled
%	w,h = width and height of box
%	  a = angle in degrees between lines and x-axis
%	 XX = 0/1 for no/yes cross-hatch
%
/PatternFill { gsave /PFa [ 9 2 roll ] def
    PFa 0 get PFa 2 get 2 div add PFa 1 get PFa 3 get 2 div add translate
    PFa 2 get -2 div PFa 3 get -2 div PFa 2 get PFa 3 get Rec
    gsave 1 setgray fill grestore clip
    currentlinewidth 0.5 mul setlinewidth
    /PFs PFa 2 get dup mul PFa 3 get dup mul add sqrt def
    0 0 M PFa 5 get rotate PFs -2 div dup translate
	0 1 PFs PFa 4 get div 1 add floor cvi
	{ PFa 4 get mul 0 M 0 PFs V } for
    0 PFa 6 get ne {
	0 1 PFs PFa 4 get div 1 add floor cvi
	{ PFa 4 get mul 0 2 1 roll M PFs 0 V } for
    } if
    stroke grestore } def
%
/Symbol-Oblique /Symbol findfont [1 0 .167 1 0 0] makefont
dup length dict begin {1 index /FID eq {pop pop} {def} ifelse} forall
currentdict end definefont pop
/MFshow {{dup dup 0 get findfont exch 1 get scalefont setfont
     [ currentpoint ] exch dup 2 get 0 exch R dup 5 get 2 ne {dup dup 6
     get exch 4 get {show} {stringwidth pop 0 R} ifelse }if dup 5 get 0 eq
     {dup 3 get {2 get neg 0 exch R pop} {pop aload pop M} ifelse} {dup 5
     get 1 eq {dup 2 get exch dup 3 get exch 6 get stringwidth pop -2 div
     dup 0 R} {dup 6 get stringwidth pop -2 div 0 R 6 get
     show 2 index {aload pop M neg 3 -1 roll neg R pop pop} {pop pop pop
     pop aload pop M} ifelse }ifelse }ifelse } forall} bind def
/MFwidth {0 exch {dup 3 get{dup dup 0 get findfont exch 1 get scalefont
     setfont 6 get stringwidth pop add} {pop} ifelse} forall} bind def
/MLshow { currentpoint stroke M
  0 exch R MFshow } bind def
/MRshow { currentpoint stroke M
  exch dup MFwidth neg 3 -1 roll R MFshow } def
/MCshow { currentpoint stroke M
  exch dup MFwidth -2 div 3 -1 roll R MFshow } def
end
%%EndProlog
gnudict begin
gsave
50 50 translate
0.050 0.050 scale
0 setgray
newpath
(Times New Roman 12) findfont 140 scalefont setfont
1.000 UL
LTb
1.000 UL
LTa
966 420 M
5996 0 V
1.000 UL
LTb
966 420 M
63 0 V
5933 0 R
-63 0 V
stroke
882 420 M
[ [(Times New Roman 12) 140.0 0.0 true true 0 (-150000)]
] -46.7 MRshow
1.000 UL
LTb
1.000 UL
LTa
966 1162 M
5996 0 V
1.000 UL
LTb
966 1162 M
63 0 V
5933 0 R
-63 0 V
stroke
882 1162 M
[ [(Times New Roman 12) 140.0 0.0 true true 0 (-100000)]
] -46.7 MRshow
1.000 UL
LTb
1.000 UL
LTa
966 1904 M
5996 0 V
1.000 UL
LTb
966 1904 M
63 0 V
5933 0 R
-63 0 V
stroke
882 1904 M
[ [(Times New Roman 12) 140.0 0.0 true true 0 (-50000)]
] -46.7 MRshow
1.000 UL
LTb
1.000 UL
LTa
966 2646 M
5996 0 V
1.000 UL
LTb
966 2646 M
63 0 V
5933 0 R
-63 0 V
stroke
882 2646 M
[ [(Times New Roman 12) 140.0 0.0 true true 0 ( 0)]
] -46.7 MRshow
1.000 UL
LTb
1.000 UL
LTa
966 3388 M
5996 0 V
1.000 UL
LTb
966 3388 M
63 0 V
5933 0 R
-63 0 V
stroke
882 3388 M
[ [(Times New Roman 12) 140.0 0.0 true true 0 ( 50000)]
] -46.7 MRshow
1.000 UL
LTb
1.000 UL
LTa
966 4130 M
5996 0 V
1.000 UL
LTb
966 4130 M
63 0 V
5933 0 R
-63 0 V
stroke
882 4130 M
[ [(Times New Roman 12) 140.0 0.0 true true 0 ( 100000)]
] -46.7 MRshow
1.000 UL
LTb
1.000 UL
LTa
966 4872 M
5996 0 V
1.000 UL
LTb
966 4872 M
63 0 V
5933 0 R
-63 0 V
stroke
882 4872 M
[ [(Times New Roman 12) 140.0 0.0 true true 0 ( 150000)]
] -46.7 MRshow
1.000 UL
LTb
1.000 UL
LTa
966 420 M
0 4452 V
1.000 UL
LTb
966 420 M
0 63 V
0 4389 R
0 -63 V
stroke
966 280 M
[ [(Times New Roman 12) 140.0 0.0 true true 0 ( 0)]
] -46.7 MCshow
1.000 UL
LTb
1.000 UL
LTa
2165 420 M
0 4452 V
1.000 UL
LTb
2165 420 M
0 63 V
0 4389 R
0 -63 V
stroke
2165 280 M
[ [(Times New Roman 12) 140.0 0.0 true true 0 ( 2e-11)]
] -46.7 MCshow
1.000 UL
LTb
1.000 UL
LTa
3364 420 M
0 4452 V
1.000 UL
LTb
3364 420 M
0 63 V
0 4389 R
0 -63 V
stroke
3364 280 M
[ [(Times New Roman 12) 140.0 0.0 true true 0 ( 4e-11)]
] -46.7 MCshow
1.000 UL
LTb
1.000 UL
LTa
4564 420 M
0 4452 V
1.000 UL
LTb
4564 420 M
0 63 V
0 4389 R
0 -63 V
stroke
4564 280 M
[ [(Times New Roman 12) 140.0 0.0 true true 0 ( 6e-11)]
] -46.7 MCshow
1.000 UL
LTb
1.000 UL
LTa
5763 420 M
0 3829 V
0 560 R
0 63 V
1.000 UL
LTb
5763 420 M
0 63 V
0 4389 R
0 -63 V
stroke
5763 280 M
[ [(Times New Roman 12) 140.0 0.0 true true 0 ( 8e-11)]
] -46.7 MCshow
1.000 UL
LTb
1.000 UL
LTa
6962 420 M
0 4452 V
1.000 UL
LTb
6962 420 M
0 63 V
0 4389 R
0 -63 V
stroke
6962 280 M
[ [(Times New Roman 12) 140.0 0.0 true true 0 ( 1e-10)]
] -46.7 MCshow
1.000 UL
LTb
1.000 UL
LTb
966 420 M
5996 0 V
0 4452 V
-5996 0 V
966 420 L
LTb
140 2646 M
currentpoint gsave translate 90 rotate 0 0 moveto
[ [(Symbol) 140.0 0.0 true true 0 (y)]
[(Italic) 112.0 -42.0 true true 0 (n)]
[(Times New Roman 12) 140.0 0.0 true true 0 (\()]
[(Italic) 140.0 0.0 true true 0 (x)]
[(Times New Roman 12) 140.0 0.0 true true 0 (\)/m)]
[(Times New Roman 12) 112.0 70.0 true true 0 (-1/2)]
] -46.7 MCshow
grestore
LTb
3964 70 M
[ [(Italic) 140.0 0.0 true true 0 (x)]
[(Times New Roman 12) 140.0 0.0 true true 0 (/m)]
] -46.7 MCshow
1.000 UP
2.000 UL
LT0
LTb
6311 4739 M
[ [(Italic) 140.0 0.0 true true 0 (n)]
[(Times New Roman 12) 140.0 0.0 true true 0 (=1)]
] -46.7 MRshow
LT0
6395 4739 M
399 0 V
966 2646 M
61 67 V
60 66 V
61 66 V
60 67 V
61 66 V
60 65 V
61 65 V
61 65 V
60 64 V
61 64 V
60 63 V
61 62 V
60 61 V
61 61 V
60 60 V
61 58 V
61 58 V
60 57 V
61 55 V
60 54 V
61 53 V
60 52 V
61 50 V
61 49 V
60 48 V
61 46 V
60 44 V
61 43 V
60 41 V
61 40 V
61 37 V
60 36 V
61 35 V
60 32 V
61 30 V
60 29 V
61 27 V
60 24 V
61 23 V
61 21 V
60 19 V
61 17 V
60 14 V
61 13 V
60 10 V
61 9 V
61 6 V
60 4 V
61 2 V
60 0 V
61 -2 V
60 -4 V
61 -6 V
61 -9 V
60 -10 V
61 -13 V
60 -14 V
61 -17 V
60 -19 V
61 -21 V
61 -23 V
60 -24 V
61 -27 V
60 -29 V
61 -30 V
60 -32 V
61 -35 V
60 -36 V
61 -37 V
61 -40 V
60 -41 V
61 -43 V
60 -44 V
61 -46 V
60 -48 V
61 -49 V
61 -50 V
60 -52 V
61 -53 V
60 -54 V
61 -55 V
60 -57 V
61 -58 V
61 -58 V
60 -60 V
61 -61 V
60 -61 V
61 -62 V
60 -63 V
61 -64 V
60 -64 V
61 -65 V
61 -65 V
60 -65 V
61 -66 V
60 -67 V
61 -66 V
60 -66 V
61 -67 V
2.000 UL
LT1
LTb
6311 4599 M
[ [(Italic) 140.0 0.0 true true 0 (n)]
[(Times New Roman 12) 140.0 0.0 true true 0 (=2)]
] -46.7 MRshow
LT1
6395 4599 M
399 0 V
966 2646 M
61 133 V
60 133 V
61 131 V
60 130 V
61 128 V
60 125 V
61 122 V
61 118 V
60 115 V
61 109 V
60 105 V
61 99 V
60 94 V
61 87 V
60 81 V
61 73 V
61 67 V
60 59 V
61 51 V
60 44 V
61 36 V
60 27 V
61 19 V
61 10 V
60 2 V
61 -6 V
60 -15 V
61 -23 V
60 -31 V
61 -40 V
61 -47 V
60 -56 V
61 -62 V
60 -71 V
61 -77 V
60 -84 V
61 -90 V
60 -97 V
61 -102 V
61 -107 V
60 -112 V
61 -116 V
60 -121 V
61 -123 V
60 -127 V
61 -129 V
61 -130 V
60 -133 V
61 -132 V
60 -134 V
61 -132 V
60 -133 V
61 -130 V
61 -129 V
60 -127 V
61 -123 V
60 -121 V
61 -116 V
60 -112 V
61 -107 V
61 -102 V
60 -97 V
61 -90 V
60 -84 V
61 -77 V
60 -71 V
61 -62 V
60 -56 V
61 -47 V
61 -40 V
60 -31 V
61 -23 V
60 -15 V
61 -6 V
60 2 V
61 10 V
61 19 V
60 27 V
61 36 V
60 44 V
61 51 V
60 59 V
61 67 V
61 73 V
60 81 V
61 87 V
60 94 V
61 99 V
60 105 V
61 109 V
60 115 V
61 118 V
61 122 V
60 125 V
61 128 V
60 130 V
61 131 V
60 133 V
61 133 V
2.000 UL
LT2
LTb
6311 4459 M
[ [(Italic) 140.0 0.0 true true 0 (n)]
[(Times New Roman 12) 140.0 0.0 true true 0 (=3)]
] -46.7 MRshow
LT2
6395 4459 M
399 0 V
966 2646 M
61 199 V
60 198 V
61 194 V
60 189 V
61 182 V
60 173 V
61 162 V
61 151 V
60 138 V
61 124 V
60 108 V
61 91 V
60 74 V
61 57 V
60 37 V
61 19 V
61 0 V
60 -19 V
61 -37 V
60 -57 V
61 -74 V
60 -91 V
61 -108 V
61 -124 V
60 -138 V
61 -151 V
60 -162 V
61 -173 V
60 -182 V
61 -189 V
61 -194 V
60 -198 V
61 -199 V
60 -199 V
61 -198 V
60 -194 V
61 -189 V
60 -182 V
61 -173 V
61 -162 V
60 -151 V
61 -138 V
60 -124 V
61 -108 V
60 -91 V
61 -74 V
61 -57 V
60 -37 V
61 -19 V
60 0 V
61 19 V
60 37 V
61 57 V
61 74 V
60 91 V
61 108 V
60 124 V
61 138 V
60 151 V
61 162 V
61 173 V
60 182 V
61 189 V
60 194 V
61 198 V
60 199 V
61 199 V
60 198 V
61 194 V
61 189 V
60 182 V
61 173 V
60 162 V
61 151 V
60 138 V
61 124 V
61 108 V
60 91 V
61 74 V
60 57 V
61 37 V
60 19 V
61 0 V
61 -19 V
60 -37 V
61 -57 V
60 -74 V
61 -91 V
60 -108 V
61 -124 V
60 -138 V
61 -151 V
61 -162 V
60 -173 V
61 -182 V
60 -189 V
61 -194 V
60 -198 V
61 -199 V
2.000 UL
LT8
LTb
6311 4319 M
[ [(Italic) 140.0 0.0 true true 0 (n)]
[(Times New Roman 12) 140.0 0.0 true true 0 (=4)]
] -46.7 MRshow
LT8
6395 4319 M
399 0 V
966 2646 M
61 266 V
60 261 V
61 253 V
60 240 V
61 224 V
60 204 V
61 181 V
61 154 V
60 126 V
61 95 V
60 63 V
61 29 V
60 -4 V
61 -38 V
60 -71 V
61 -103 V
61 -133 V
60 -161 V
61 -187 V
60 -209 V
61 -228 V
60 -244 V
61 -256 V
61 -263 V
60 -266 V
61 -265 V
60 -259 V
61 -250 V
60 -237 V
61 -219 V
61 -199 V
60 -174 V
61 -148 V
60 -118 V
61 -87 V
60 -54 V
61 -21 V
60 12 V
61 46 V
61 80 V
60 110 V
61 140 V
60 168 V
61 193 V
60 214 V
61 233 V
61 247 V
60 258 V
61 264 V
60 266 V
61 264 V
60 258 V
61 247 V
61 233 V
60 214 V
61 193 V
60 168 V
61 140 V
60 110 V
61 80 V
61 46 V
60 12 V
61 -21 V
60 -54 V
61 -87 V
60 -118 V
61 -148 V
60 -174 V
61 -199 V
61 -219 V
60 -237 V
61 -250 V
60 -259 V
61 -265 V
60 -266 V
61 -263 V
61 -256 V
60 -244 V
61 -228 V
60 -209 V
61 -187 V
60 -161 V
61 -133 V
61 -103 V
60 -71 V
61 -38 V
60 -4 V
61 29 V
60 63 V
61 95 V
60 126 V
61 154 V
61 181 V
60 204 V
61 224 V
60 240 V
61 253 V
60 261 V
61 266 V
1.000 UL
LTb
966 420 M
5996 0 V
0 4452 V
-5996 0 V
966 420 L
1.000 UP
stroke
grestore
end
showpage
%%Trailer
%%DocumentFonts: Italic Symbol Times New Roman 12
