%!PS-Adobe-2.0 EPSF-2.0
%%Title: Schodek.fig
%%Creator: fig2dev Version 3.2 Patchlevel 4
%%CreationDate: Sun Oct 16 03:18:48 2005
%%For: lukaszrajchel@Luke.local (Łukasz Rajchel)
%%BoundingBox: 0 0 200 186
%%Magnification: 1.0000
%%EndComments
/$F2psDict 200 dict def
$F2psDict begin
$F2psDict /mtrx matrix put
/col-1 {0 setgray} bind def
/col0 {0.000 0.000 0.000 srgb} bind def
/col1 {0.000 0.000 1.000 srgb} bind def
/col2 {0.000 1.000 0.000 srgb} bind def
/col3 {0.000 1.000 1.000 srgb} bind def
/col4 {1.000 0.000 0.000 srgb} bind def
/col5 {1.000 0.000 1.000 srgb} bind def
/col6 {1.000 1.000 0.000 srgb} bind def
/col7 {1.000 1.000 1.000 srgb} bind def
/col8 {0.000 0.000 0.560 srgb} bind def
/col9 {0.000 0.000 0.690 srgb} bind def
/col10 {0.000 0.000 0.820 srgb} bind def
/col11 {0.530 0.810 1.000 srgb} bind def
/col12 {0.000 0.560 0.000 srgb} bind def
/col13 {0.000 0.690 0.000 srgb} bind def
/col14 {0.000 0.820 0.000 srgb} bind def
/col15 {0.000 0.560 0.560 srgb} bind def
/col16 {0.000 0.690 0.690 srgb} bind def
/col17 {0.000 0.820 0.820 srgb} bind def
/col18 {0.560 0.000 0.000 srgb} bind def
/col19 {0.690 0.000 0.000 srgb} bind def
/col20 {0.820 0.000 0.000 srgb} bind def
/col21 {0.560 0.000 0.560 srgb} bind def
/col22 {0.690 0.000 0.690 srgb} bind def
/col23 {0.820 0.000 0.820 srgb} bind def
/col24 {0.500 0.190 0.000 srgb} bind def
/col25 {0.630 0.250 0.000 srgb} bind def
/col26 {0.750 0.380 0.000 srgb} bind def
/col27 {1.000 0.500 0.500 srgb} bind def
/col28 {1.000 0.630 0.630 srgb} bind def
/col29 {1.000 0.750 0.750 srgb} bind def
/col30 {1.000 0.880 0.880 srgb} bind def
/col31 {1.000 0.840 0.000 srgb} bind def

end
save
newpath 0 186 moveto 0 0 lineto 200 0 lineto 200 186 lineto closepath clip newpath
-197.7 354.3 translate
1 -1 scale

/cp {closepath} bind def
/ef {eofill} bind def
/gr {grestore} bind def
/gs {gsave} bind def
/sa {save} bind def
/rs {restore} bind def
/l {lineto} bind def
/m {moveto} bind def
/rm {rmoveto} bind def
/n {newpath} bind def
/s {stroke} bind def
/sh {show} bind def
/slc {setlinecap} bind def
/slj {setlinejoin} bind def
/slw {setlinewidth} bind def
/srgb {setrgbcolor} bind def
/rot {rotate} bind def
/sc {scale} bind def
/sd {setdash} bind def
/ff {findfont} bind def
/sf {setfont} bind def
/scf {scalefont} bind def
/sw {stringwidth} bind def
/tr {translate} bind def
/tnt {dup dup currentrgbcolor
  4 -2 roll dup 1 exch sub 3 -1 roll mul add
  4 -2 roll dup 1 exch sub 3 -1 roll mul add
  4 -2 roll dup 1 exch sub 3 -1 roll mul add srgb}
  bind def
/shd {dup dup currentrgbcolor 4 -2 roll mul 4 -2 roll mul
  4 -2 roll mul srgb} bind def
/$F2psBegin {$F2psDict begin /$F2psEnteredState save def} def
/$F2psEnd {$F2psEnteredState restore end} def

$F2psBegin
10 setmiterlimit
0 slj 0 slc
 0.06299 0.06299 sc
%
% Fig objects follow
%
% 
% here starts figure with depth 50
/Times-Italic ff 180.00 scf sf
6210 5625 m
gs 1 -1 sc (x) col0 sh gr
/Times-Roman ff 120.00 scf sf
4365 4140 m
gs 1 -1 sc (0) col0 sh gr
/Times-Italic ff 180.00 scf sf
3735 5310 m
gs 1 -1 sc (X) col0 sh gr
/Times-Roman ff 120.00 scf sf
3825 5355 m
gs 1 -1 sc (1) col0 sh gr
/Times-Italic ff 180.00 scf sf
5745 5310 m
gs 1 -1 sc (X) col0 sh gr
/Times-Roman ff 120.00 scf sf
5835 5355 m
gs 1 -1 sc (3) col0 sh gr
/Times-Italic ff 180.00 scf sf
4845 3960 m
gs 1 -1 sc (X) col0 sh gr
/Times-Roman ff 120.00 scf sf
4935 4005 m
gs 1 -1 sc (2) col0 sh gr
% Polyline
7.500 slw
gs  clippath
4530 2685 m 4470 2685 l 4470 2836 l 4500 2716 l 4530 2836 l cp
eoclip
n 4500 5400 m
 4500 2700 l gs col0 s gr gr

% arrowhead
n 4530 2836 m 4500 2716 l 4470 2836 l 4530 2836 l  cp gs 0.00 setgray ef gr  col0 s
% Polyline
gs  clippath
6315 5430 m 6315 5370 l 6164 5370 l 6284 5400 l 6164 5430 l cp
eoclip
n 3150 5400 m
 6300 5400 l gs col0 s gr gr

% arrowhead
n 6164 5430 m 6284 5400 l 6164 5370 l 6164 5430 l  cp gs 0.00 setgray ef gr  col0 s
% Polyline
 [15 45] 45 sd
n 4500 4050 m 5400 4050 l 5400 5400 l 4500 5400 l
 cp gs col7 0.50 shd ef gr gs col-1 s gr  [] 0 sd
% Polyline
n 5400 5400 m
 5400 4050 l gs col0 s gr 
% Polyline
n 4500 4050 m
 5400 4050 l gs col0 s gr 
/Times-Italic ff 180.00 scf sf
4275 2880 m
gs 1 -1 sc (V) col0 sh gr
/Times-Roman ff 180.00 scf sf
4455 5625 m
gs 1 -1 sc (0) col0 sh gr
/Times-Italic ff 180.00 scf sf
5355 5625 m
gs 1 -1 sc (L) col0 sh gr
/Times-Italic ff 180.00 scf sf
4275 4095 m
gs 1 -1 sc (V) col0 sh gr
% here ends figure;
$F2psEnd
rs
showpage
